       PROCESS  NODYNAM,OPT,CODEPAGE(37),NSYMBOL(NATIONAL)
       PROCESS  ARITH(EXTEND)
      *          *********************************************
      *    *********************************************************
      *  *************************************************************
      *         Web Services for CICS TS 3.x Converter Driver
      *  *************************************************************
      *    *********************************************************
      *          *********************************************
       IDENTIFICATION DIVISION.
        PROGRAM-ID. 'WUT001LD'.
        AUTHOR. DEVHV.
        INSTALLATION. 7.17.600.V200712031646.
        DATE-WRITTEN. 4/8/08 2:08 PM.
      * *************************************************************
      *              Coded Character Sets Configuration
      * *************************************************************
      *Inbound XML  CCSID 37
      *Host System  CCSID 37
      *Outbound XML CCSID 37
       DATA DIVISION.
       WORKING-STORAGE SECTION.
       1 CONVERTER-ERROR-7.
       2 PIC X(40) USAGE DISPLAY
           VALUE 'Language Environment Service Call Failed'.
       1 CONVERTER-ERROR-8.
       2 PIC X(35) USAGE DISPLAY
           VALUE 'Language Environment Message Number'.
       1 CONVERTER-ERROR-9.
       2 PIC X(31) USAGE DISPLAY
           VALUE 'XML Converter Is Terminating...'.
      * *************************************************************
      *             Vendor Program Container Definitions
      * *************************************************************
       1 DFH-BODY-CONTAINER PIC X(16) VALUE 'DFH-BODY'.
       1 DFH-DATA-CONTAINER PIC X(16) VALUE 'DFH-DATA'.
       LOCAL-STORAGE SECTION.
      * *************************************************************
      *             Storage Items For LE Error Handling
      * *************************************************************
       1 CONVERTER-RETURN-CODE PIC S9(9) BINARY.
       1 ROUTINE PROCEDURE-POINTER.
       1 TOKEN POINTER.
       1 FEEDBACK-CODE.
       2 CONDITION-TOKEN-VALUE.
       88 CEE000 VALUE X'0000000000000000'.
       88 CEE0E7 VALUE X'000101C749C3C5C5'.
       3 SEVERITY PIC S9(4) BINARY.
       3 MSG-NO PIC S9(4) BINARY.
       3 CASE-SEV-CTL PIC X.
       3 FACILITY PIC XXX.
       2 I-S-INFO PIC S9(9) BINARY.
       1 OPTIONAL-FEEDBACK-CODE.
       2 CONDITION-TOKEN-VALUE.
       88 CEE000 VALUE X'0000000000000000'.
       88 CEE0E7 VALUE X'000101C749C3C5C5'.
       3 SEVERITY PIC S9(4) BINARY.
       3 MSG-NO PIC S9(4) BINARY.
       3 CASE-SEV-CTL PIC X.
       3 FACILITY PIC XXX.
       2 I-S-INFO PIC S9(9) BINARY.
       1 ERROR-RESPONSE.
       2 ERROR-OCCURRED PIC X.
       2 ERROR-MESSAGE-NUMBER PIC 9(9).
       2 ERROR-REASON-LENGTH PIC 9(9) BINARY.
       2 ERROR-REASON PIC X(512).
      * *************************************************************
      *                 Converter Metadata Variables
      * *************************************************************
       1 INSTRUCT-MAX-SIZE PIC S9(9) COMP.
       1 OUTSTRUCT-MAX-SIZE PIC S9(9) COMP.
       1 OUTXML-MAX-SIZE PIC S9(9) COMP.
       1 INBOUND-CCSID PIC S9(9) COMP.
       1 HOST-CCSID PIC S9(9) COMP.
       1 OUTBOUND-CCSID PIC S9(9) COMP.
      * *************************************************************
      *                 SOAP Pipeline Work Variables
      * *************************************************************
       1 SOAP-PIPELINE-WORK-VARIABLES.
       2 NEXT-CONTAINER PIC X(16).
       2 COMMAND-RESP PIC 9(9) BINARY.
       2 COMMAND-RESP2 PIC 9(9) BINARY.
       2 CONTAINER-BROWSE-TOKEN POINTER.
       2 DFH-BODY-PTR POINTER.
       2 DFH-BODY-LEN PIC 9(9) BINARY.
       2 DFH-DATA-PTR POINTER.
       2 DFH-DATA-LEN PIC 9(9) BINARY.
       2 WORK-AREA-PTR POINTER.
       2 WORK-AREA-LEN PIC 9(9) BINARY.
       LINKAGE SECTION.
       1 DFH-BODY PIC X.
       1 DFH-DATA PIC X.
      * *************************************************************
      *              Business Program Binary Interfaces
      * *************************************************************
       01 LOADTXD-PARM-AREA
           .
       02 LOADTXD-CHANNEL-HEADER
           .
       05 LOADTXD-CHANNEL-ID
           PICTURE X(8)
           USAGE DISPLAY
           .
       05 LOADTXD-VERS-RESP-CD
           PICTURE X(8)
           USAGE DISPLAY
           .
       88 LOADTXD-RESPONSE-SUCCESSFUL
           VALUE
           'WFUT000I'
           .
       88 LOADTXD-RESPONSE-ERROR
           VALUE
           'WFUT999E'
           .
       02 LOADTXD-INPUT-PARMS
           .
       05 LOADTXD-FUNCTION
           PICTURE X(8)
           USAGE DISPLAY
           .
       05 LOADTXD-USER-CD
           PICTURE X(8)
           USAGE DISPLAY
           .
       05 LOADTXD-CLAUSE-CD
           PICTURE X(8)
           USAGE DISPLAY
           .
       05 LOADTXD-PRINT-FLAG
           PICTURE X
           USAGE DISPLAY
           .
       05 LOADTXD-DOC-TYP-SEQ-NBR
           PICTURE +9(4)
           USAGE DISPLAY
           .
       05 LOADTXD-TEXT-ENTY-CD
           PICTURE X(15)
           USAGE DISPLAY
           .
       05 LOADTXD-CHNG-SEQ-NBR
           PICTURE X(3)
           USAGE DISPLAY
           .
       05 LOADTXD-ITEM-NBR
           PICTURE +9(4)
           USAGE DISPLAY
           .
       05 LOADTXD-CMNT-TEXT
           PICTURE X(9999)
           USAGE DISPLAY
           .
       02 LOADTXD-RETURN-STATUS-PARMS
           .
       05 LOADTXD-RETURN-STATUS-CODE
           PICTURE X
           USAGE DISPLAY
           .
       05 LOADTXD-RETURN-MSG-COUNT
           PICTURE 9
           USAGE DISPLAY
           .
       05 LOADTXD-RETURN-MSG-AREA
           .
       10 LOADTXD-RETURN-MSG-NUM
           PICTURE X(6)
           USAGE DISPLAY
           .
       10 LOADTXD-RETURN-MSG-FIELD
           PICTURE X(30)
           USAGE DISPLAY
           .
       10 LOADTXD-RETURN-MSG-TEXT
           PICTURE X(40)
           USAGE DISPLAY
           .
       PROCEDURE DIVISION.
       MAINLINE SECTION.
      * -------------------------------------------------------------
      *            Initialize Storage and Browse Channel
      * -------------------------------------------------------------
           PERFORM REGISTER-EXCEPTION-HANDLER
           INITIALIZE SOAP-PIPELINE-WORK-VARIABLES
           PERFORM GET-CONVERTER-METADATA
           PERFORM BROWSE-VENDOR-CHANNEL
      * -------------------------------------------------------------
      *           Branch To Processing Logic For Container
      * -------------------------------------------------------------
           EVALUATE NEXT-CONTAINER
             WHEN DFH-BODY-CONTAINER
               PERFORM PROCESS-DFH-BODY
             WHEN DFH-DATA-CONTAINER
               PERFORM PROCESS-DFH-DATA
             WHEN OTHER
               EXEC CICS ABEND
               END-EXEC
           END-EVALUATE
      * -------------------------------------------------------------
      *                           Finished
      * -------------------------------------------------------------
           PERFORM FREE-WORK-AREA
           PERFORM UNREGISTER-EXCEPTION-HANDLER
           EXEC CICS RETURN
           END-EXEC
           .
       BROWSE-VENDOR-CHANNEL.
           EXEC CICS STARTBROWSE CONTAINER
             BROWSETOKEN (CONTAINER-BROWSE-TOKEN)
           END-EXEC
           PERFORM TEST AFTER UNTIL
             NEXT-CONTAINER EQUAL DFH-BODY-CONTAINER OR
             NEXT-CONTAINER EQUAL DFH-DATA-CONTAINER OR
             COMMAND-RESP2 NOT EQUAL ZERO
             EXEC CICS GETNEXT CONTAINER (NEXT-CONTAINER)
               BROWSETOKEN (CONTAINER-BROWSE-TOKEN)
               RESP(COMMAND-RESP)
               RESP2(COMMAND-RESP2)
             END-EXEC
           END-PERFORM
           .
       PROCESS-DFH-BODY.
           PERFORM RECEIVE-DFH-BODY
           PERFORM ALLOCATE-DFH-DATA-WORK-AREA
           MOVE 'N' TO ERROR-OCCURRED
           PERFORM INBOUND-CONVERSION
           IF ERROR-OCCURRED = 'Y'
             PERFORM SEND-SOAP-FAULT
           ELSE
             PERFORM SEND-DFH-DATA
           END-IF
           .
       PROCESS-DFH-DATA.
           PERFORM RECEIVE-DFH-DATA
           PERFORM ALLOCATE-DFH-BODY-WORK-AREA
           MOVE 'N' TO ERROR-OCCURRED
           PERFORM OUTBOUND-CONVERSION
           IF ERROR-OCCURRED = 'Y'
             PERFORM SEND-SOAP-FAULT
           ELSE
             PERFORM SEND-DFH-BODY
           END-IF
           .
       RECEIVE-DFH-BODY.
           EXEC CICS GET CONTAINER(DFH-BODY-CONTAINER)
             SET(DFH-BODY-PTR)
             FLENGTH(DFH-BODY-LEN)
             INTOCCSID(37)
           END-EXEC
           SET ADDRESS OF DFH-BODY
             TO DFH-BODY-PTR
           .
       SEND-DFH-BODY.
           EXEC CICS PUT CONTAINER(DFH-BODY-CONTAINER)
             FROM(DFH-BODY)
             FLENGTH(DFH-BODY-LEN)
             FROMCCSID(37)
           END-EXEC
           .
       RECEIVE-DFH-DATA.
           EXEC CICS GET CONTAINER(DFH-DATA-CONTAINER)
             SET(DFH-DATA-PTR)
             FLENGTH(DFH-DATA-LEN)
           END-EXEC
           SET ADDRESS OF LOADTXD-PARM-AREA
             TO DFH-DATA-PTR
           .
       SEND-DFH-DATA.
           COMPUTE DFH-DATA-LEN =
             LENGTH OF LOADTXD-PARM-AREA
           EXEC CICS PUT CONTAINER(DFH-DATA-CONTAINER)
             FROM(LOADTXD-PARM-AREA)
             FLENGTH(DFH-DATA-LEN)
           END-EXEC
           .
       ALLOCATE-DFH-BODY-WORK-AREA.
           MOVE OUTXML-MAX-SIZE
             TO WORK-AREA-LEN
           EXEC CICS GETMAIN
             SET(WORK-AREA-PTR)
             FLENGTH(WORK-AREA-LEN)
           END-EXEC
           SET ADDRESS OF DFH-BODY
             TO WORK-AREA-PTR
           .
       ALLOCATE-DFH-DATA-WORK-AREA.
           MOVE INSTRUCT-MAX-SIZE
             TO WORK-AREA-LEN
           EXEC CICS GETMAIN
             SET(WORK-AREA-PTR)
             FLENGTH(WORK-AREA-LEN)
           END-EXEC
           SET ADDRESS OF LOADTXD-PARM-AREA
             TO WORK-AREA-PTR
           .
       FREE-WORK-AREA.
           IF WORK-AREA-PTR NOT EQUAL NULL
             EXEC CICS FREEMAIN
               DATAPOINTER(WORK-AREA-PTR)
             END-EXEC
           END-IF
           .
       GET-CONVERTER-METADATA.
           CALL 'WUT001LX' USING
             INSTRUCT-MAX-SIZE OUTSTRUCT-MAX-SIZE
             OUTXML-MAX-SIZE INBOUND-CCSID
             HOST-CCSID OUTBOUND-CCSID
           .
       SEND-SOAP-FAULT.
           EXEC CICS SOAPFAULT CREATE CLIENT
             FAULTSTRING(ERROR-REASON)
             FAULTSTRLEN(ERROR-REASON-LENGTH)
           END-EXEC
           .
       INBOUND-CONVERSION.
           CALL 'WUT001LI'
             USING
               LOADTXD-PARM-AREA
               DFH-BODY-LEN
               DFH-BODY
               OMITTED
      *   OPTIONAL-FEEDBACK-CODE
             RETURNING
               CONVERTER-RETURN-CODE
           .
       OUTBOUND-CONVERSION.
           CALL 'WUT001LO'
             USING
               LOADTXD-PARM-AREA
               DFH-BODY-LEN
               DFH-BODY
               OMITTED
      *   OPTIONAL-FEEDBACK-CODE
             RETURNING
               CONVERTER-RETURN-CODE
           .
       REGISTER-EXCEPTION-HANDLER.
           SET ROUTINE TO ENTRY 'WUT001LF'
           SET TOKEN TO ADDRESS OF ERROR-RESPONSE
           CALL 'CEEHDLR' USING ROUTINE TOKEN FEEDBACK-CODE
           PERFORM CHECK-LE-SERVICE-FC
           .
       UNREGISTER-EXCEPTION-HANDLER.
           CALL 'CEEHDLU' USING ROUTINE FEEDBACK-CODE
           PERFORM CHECK-LE-SERVICE-FC
           .
       CHECK-LE-SERVICE-FC.
           IF NOT CEE000 OF FEEDBACK-CODE
             DISPLAY CONVERTER-ERROR-7
             DISPLAY CONVERTER-ERROR-8 ' '
               FACILITY OF FEEDBACK-CODE
               MSG-NO OF FEEDBACK-CODE
             DISPLAY CONVERTER-ERROR-9
             STOP RUN
           END-IF
           .
       END PROGRAM 'WUT001LD'.
      *          *********************************************
      *    *********************************************************
      *  *************************************************************
      *                       Exception Handler
      *  *************************************************************
      *    *********************************************************
      *          *********************************************
       PROCESS NOCICS
       IDENTIFICATION DIVISION.
        PROGRAM-ID. 'WUT001LF'.
        AUTHOR. DEVHV.
        INSTALLATION. 7.17.600.V200712031646.
        DATE-WRITTEN. 4/8/08 2:08 PM
       DATA DIVISION.
       WORKING-STORAGE SECTION.
       1 CONVERTER-ERROR-5.
       2 PIC X(31) USAGE DISPLAY
           VALUE 'Failed To Get Exception Message'.
       LOCAL-STORAGE SECTION.
       1 MSG-PTR PIC S9(9) COMP.
       1 MSG-PART PIC X(80).
       1 MSG-OFFSET PIC 9(9) COMP.
       1 MSG-PART-LENGTH PIC 9(9) COMP.
       1 FEEDBACK-CODE.
       2 CONDITION-TOKEN-VALUE.
       88 CEE000 VALUE X'0000000000000000'.
       88 CEE0E7 VALUE X'000101C749C3C5C5'.
       3 SEVERITY PIC S9(4) BINARY.
       3 MSG-NO PIC S9(4) BINARY.
       3 CASE-SEV-CTL PIC X.
       3 FACILITY PIC XXX.
       2 I-S-INFO PIC S9(9) BINARY.
       LINKAGE SECTION.
       1 TOKEN POINTER.
       1 RESULT PIC S9(9) BINARY.
       88 RESUME VALUE 10.
       1 CURRENT-CONDITION.
       2 CONDITION-TOKEN-VALUE.
       88 CEE000 VALUE X'0000000000000000'.
       88 CEE0E7 VALUE X'000101C749C3C5C5'.
       3 SEVERITY PIC S9(4) BINARY.
       3 MSG-NO PIC S9(4) BINARY.
       3 CASE-SEV-CTL PIC X.
       3 FACILITY PIC XXX.
       2 I-S-INFO PIC S9(9) BINARY.
       1 NEW-CONDITION PIC X(12).
       1 ERROR-CDATA-PTR PIC X(512).
       1 ERROR-RESPONSE.
       2 ERROR-OCCURRED PIC X.
       2 ERROR-MESSAGE-NUMBER PIC 9(9).
       2 ERROR-REASON-LENGTH PIC 9(9) BINARY.
       2 ERROR-REASON PIC X(512).
       PROCEDURE DIVISION USING CURRENT-CONDITION TOKEN
           RESULT NEW-CONDITION.
       MAINLINE SECTION.
      * -------------------------------------------------------------
      *             Storage For Saving Exception Details
      * -------------------------------------------------------------
           SET ADDRESS OF ERROR-RESPONSE TO TOKEN
      * -------------------------------------------------------------
      *                    Get Exception Message
      * -------------------------------------------------------------
           PERFORM FILL-DESCRIPTION-BUFFER
      * -------------------------------------------------------------
      *                  Display Exception Message
      * -------------------------------------------------------------
           PERFORM DISPLAY-MESSAGE-TEXT
      * -------------------------------------------------------------
      *        Recover From Exception To Produce XML Response
      * -------------------------------------------------------------
           MOVE 'Y' TO ERROR-OCCURRED
           SET RESUME TO TRUE
      * -------------------------------------------------------------
      *                           Finished
      * -------------------------------------------------------------
           GOBACK
           .
       FILL-DESCRIPTION-BUFFER.
           MOVE 0 TO MSG-PTR
           MOVE 512 TO ERROR-REASON-LENGTH
           MOVE SPACES TO MSG-PART ERROR-REASON
           CALL 'CEEMGET' USING
             CURRENT-CONDITION MSG-PART
             MSG-PTR FEEDBACK-CODE
           IF NOT CEE000 OF FEEDBACK-CODE AND
              NOT CEE0E7 OF FEEDBACK-CODE
            DISPLAY CONVERTER-ERROR-5
           END-IF
           IF NOT CEE0E7 OF FEEDBACK-CODE
            PERFORM COMPUTE-PART-LENGTH
            MOVE MSG-PART-LENGTH TO ERROR-REASON-LENGTH
            MOVE MSG-PART TO ERROR-REASON
           ELSE
            MOVE MSG-PART TO ERROR-REASON
            MOVE MSG-PTR TO MSG-OFFSET
            PERFORM UNTIL MSG-PTR = 0
             MOVE SPACES TO MSG-PART
             CALL 'CEEMGET' USING
              CURRENT-CONDITION MSG-PART
              MSG-PTR FEEDBACK-CODE
             IF NOT CEE000 OF FEEDBACK-CODE AND
                NOT CEE0E7 OF FEEDBACK-CODE
              DISPLAY CONVERTER-ERROR-5
             END-IF
             IF MSG-PTR NOT = 0
              MOVE MSG-PART TO
               ERROR-REASON(MSG-OFFSET + 1:MSG-PTR)
              ADD MSG-PTR TO MSG-OFFSET
             ELSE
              PERFORM COMPUTE-PART-LENGTH
              MOVE MSG-PART TO
               ERROR-REASON(MSG-OFFSET + 1:MSG-PART-LENGTH)
              ADD MSG-PART-LENGTH TO MSG-OFFSET
             END-IF
            END-PERFORM
           END-IF
           MOVE MSG-NO OF CURRENT-CONDITION TO
            ERROR-MESSAGE-NUMBER
           MOVE MSG-OFFSET TO ERROR-REASON-LENGTH
           .
       COMPUTE-PART-LENGTH.
           PERFORM VARYING MSG-PART-LENGTH FROM 80 BY -1
            UNTIL MSG-PART(MSG-PART-LENGTH:1) NOT = SPACE
            OR MSG-PART-LENGTH < 1
           END-PERFORM
           .
       DISPLAY-MESSAGE-TEXT.
           DISPLAY ERROR-REASON(1:ERROR-REASON-LENGTH)
           .
       END PROGRAM 'WUT001LF'.
      *          *********************************************
      *    *********************************************************
      *  *************************************************************
      *              Converter Metadata Aggregate Service
      *  *************************************************************
      *    *********************************************************
      *          *********************************************
       IDENTIFICATION DIVISION.
        PROGRAM-ID. 'WUT001LX'.
        AUTHOR. DEVHV.
        INSTALLATION. 7.17.600.V200712031646.
        DATE-WRITTEN. 4/8/08 2:08 PM.
       DATA DIVISION.
       WORKING-STORAGE SECTION.
       LINKAGE SECTION.
       1 INSTRUCT-MAX-SIZE PIC S9(9) COMP.
       1 OUTSTRUCT-MAX-SIZE PIC S9(9) COMP.
       1 OUTXML-MAX-SIZE PIC S9(9) COMP.
       1 INBOUND-CCSID PIC S9(9) COMP.
       1 HOST-CCSID PIC S9(9) COMP.
       1 OUTBOUND-CCSID PIC S9(9) COMP.
       PROCEDURE DIVISION USING INSTRUCT-MAX-SIZE OUTSTRUCT-MAX-SIZE
           OUTXML-MAX-SIZE INBOUND-CCSID HOST-CCSID OUTBOUND-CCSID.
       MAINLINE SECTION.
           MOVE 10146 TO INSTRUCT-MAX-SIZE
           MOVE 10146 TO OUTSTRUCT-MAX-SIZE
           MOVE 1203 TO OUTXML-MAX-SIZE
           MOVE 37 TO INBOUND-CCSID
           MOVE 37 TO HOST-CCSID
           MOVE 37 TO OUTBOUND-CCSID
           GOBACK
           .
       END PROGRAM 'WUT001LX'.
       PROCESS  NODYNAM,OPT,CODEPAGE(37),NSYMBOL(NATIONAL),NOCICS
       PROCESS  ARITH(EXTEND)
      *          *********************************************
      *    *********************************************************
      *  *************************************************************
      *                     Inbound XML Converter
      *  *************************************************************
      *    *********************************************************
      *          *********************************************
       IDENTIFICATION DIVISION.
        PROGRAM-ID. 'WUT001LI'.
        AUTHOR. DEVHV.
        INSTALLATION. 7.17.600.V200712031646.
        DATE-WRITTEN. 4/8/08 2:08 PM.
       DATA DIVISION.
       WORKING-STORAGE SECTION.
       1 XML-ROOT-ELEMENT.
       2 PIC X(15) USAGE DISPLAY
           VALUE 'LOADTXDPARMAREA'.
       1 ELEMENT-HASH-ENTRIES.
       2 X00000033.
       3 PIC X(43) VALUE SPACES.
       3 PIC S9(4) COMP.
       3 PIC S9(4) COMP.
       3 PIC S9(4) COMP.
       3 PIC X VALUE '0'.
       2 X00000034.
       3 PIC X(43) VALUE SPACES.
       3 PIC S9(4) COMP.
       3 PIC S9(4) COMP.
       3 PIC S9(4) COMP.
       3 PIC X VALUE '0'.
       2 X00000035.
       3 PIC X(43) VALUE SPACES.
       3 PIC S9(4) COMP.
       3 PIC S9(4) COMP.
       3 PIC S9(4) COMP.
       3 PIC X VALUE '0'.
       2 X00000036.
       3 PIC X(36) USAGE DISPLAY
           VALUE 'loadtxd_input_parms/loadtxd_function'.
       3 PIC X(7) USAGE DISPLAY
           VALUE SPACES.
       3 PIC S9(4) COMP VALUE 3.
       3 PIC S9(4) COMP.
       3 PIC S9(4) COMP.
       3 PIC X VALUE '4'.
       2 X00000037.
       3 PIC X(43) VALUE SPACES.
       3 PIC S9(4) COMP.
       3 PIC S9(4) COMP.
       3 PIC S9(4) COMP.
       3 PIC X VALUE '0'.
       2 X00000038.
       3 PIC X(37) USAGE DISPLAY
           VALUE 'loadtxd_input_parms/loadtxd_cmnt_text'.
       3 PIC X(6) USAGE DISPLAY
           VALUE SPACES.
       3 PIC S9(4) COMP VALUE 11.
       3 PIC S9(4) COMP.
       3 PIC S9(4) COMP.
       3 PIC X VALUE '4'.
       2 X00000039.
       3 PIC X(43) VALUE SPACES.
       3 PIC S9(4) COMP.
       3 PIC S9(4) COMP.
       3 PIC S9(4) COMP.
       3 PIC X VALUE '0'.
       2 X0000003A.
       3 PIC X(43) VALUE SPACES.
       3 PIC S9(4) COMP.
       3 PIC S9(4) COMP.
       3 PIC S9(4) COMP.
       3 PIC X VALUE '0'.
       2 X0000003B.
       3 PIC X(40) USAGE DISPLAY
           VALUE 'loadtxd_input_parms/loadtxd_chng_seq_nbr'.
       3 PIC X(3) USAGE DISPLAY
           VALUE SPACES.
       3 PIC S9(4) COMP VALUE 9.
       3 PIC S9(4) COMP.
       3 PIC S9(4) COMP.
       3 PIC X VALUE '4'.
       2 X0000003C.
       3 PIC X(43) VALUE SPACES.
       3 PIC S9(4) COMP.
       3 PIC S9(4) COMP.
       3 PIC S9(4) COMP.
       3 PIC X VALUE '0'.
       2 X0000003D.
       3 PIC X(41) USAGE DISPLAY
           VALUE 'loadtxd_channel_header/loadtxd_channel_id'.
       3 PIC X(2) USAGE DISPLAY
           VALUE SPACES.
       3 PIC S9(4) COMP VALUE 1.
       3 PIC S9(4) COMP.
       3 PIC S9(4) COMP.
       3 PIC X VALUE '4'.
       2 X0000003E.
       3 PIC X(43) VALUE SPACES.
       3 PIC S9(4) COMP.
       3 PIC S9(4) COMP.
       3 PIC S9(4) COMP.
       3 PIC X VALUE '0'.
       2 X0000003F.
       3 PIC X(38) USAGE DISPLAY
           VALUE 'loadtxd_input_parms/loadtxd_print_flag'.
       3 PIC X(5) USAGE DISPLAY
           VALUE SPACES.
       3 PIC S9(4) COMP VALUE 6.
       3 PIC S9(4) COMP.
       3 PIC S9(4) COMP.
       3 PIC X VALUE '4'.
       2 X00000040.
       3 PIC X(43) VALUE SPACES.
       3 PIC S9(4) COMP.
       3 PIC S9(4) COMP.
       3 PIC S9(4) COMP.
       3 PIC X VALUE '0'.
       2 X00000041.
       3 PIC X(43) USAGE DISPLAY
           VALUE 'loadtxd_input_parms/loadtxd_doc_typ_seq_nbr'.
       3 PIC S9(4) COMP VALUE 7.
       3 PIC S9(4) COMP VALUE 1.
       3 PIC S9(4) COMP VALUE 1.
       3 PIC X VALUE '3'.
       2 X00000042.
       3 PIC X(43) VALUE SPACES.
       3 PIC S9(4) COMP.
       3 PIC S9(4) COMP.
       3 PIC S9(4) COMP.
       3 PIC X VALUE '0'.
       2 X00000043.
       3 PIC X(43) VALUE SPACES.
       3 PIC S9(4) COMP.
       3 PIC S9(4) COMP.
       3 PIC S9(4) COMP.
       3 PIC X VALUE '0'.
       2 X00000044.
       3 PIC X(43) VALUE SPACES.
       3 PIC S9(4) COMP.
       3 PIC S9(4) COMP.
       3 PIC S9(4) COMP.
       3 PIC X VALUE '0'.
       2 X00000045.
       3 PIC X(43) VALUE SPACES.
       3 PIC S9(4) COMP.
       3 PIC S9(4) COMP.
       3 PIC S9(4) COMP.
       3 PIC X VALUE '0'.
       2 X00000046.
       3 PIC X(43) VALUE SPACES.
       3 PIC S9(4) COMP.
       3 PIC S9(4) COMP.
       3 PIC S9(4) COMP.
       3 PIC X VALUE '0'.
       2 X00000047.
       3 PIC X(43) VALUE SPACES.
       3 PIC S9(4) COMP.
       3 PIC S9(4) COMP.
       3 PIC S9(4) COMP.
       3 PIC X VALUE '0'.
       2 X00000048.
       3 PIC X(43) VALUE SPACES.
       3 PIC S9(4) COMP.
       3 PIC S9(4) COMP.
       3 PIC S9(4) COMP.
       3 PIC X VALUE '0'.
       2 X00000049.
       3 PIC X(36) USAGE DISPLAY
           VALUE 'loadtxd_input_parms/loadtxd_item_nbr'.
       3 PIC X(7) USAGE DISPLAY
           VALUE SPACES.
       3 PIC S9(4) COMP VALUE 10.
       3 PIC S9(4) COMP VALUE 1.
       3 PIC S9(4) COMP VALUE 2.
       3 PIC X VALUE '3'.
       2 X0000004A.
       3 PIC X(40) USAGE DISPLAY
           VALUE 'loadtxd_input_parms/loadtxd_text_enty_cd'.
       3 PIC X(3) USAGE DISPLAY
           VALUE SPACES.
       3 PIC S9(4) COMP VALUE 8.
       3 PIC S9(4) COMP.
       3 PIC S9(4) COMP.
       3 PIC X VALUE '4'.
       2 X0000004B.
       3 PIC X(43) VALUE SPACES.
       3 PIC S9(4) COMP.
       3 PIC S9(4) COMP.
       3 PIC S9(4) COMP.
       3 PIC X VALUE '0'.
       2 X0000004C.
       3 PIC X(43) VALUE SPACES.
       3 PIC S9(4) COMP.
       3 PIC S9(4) COMP.
       3 PIC S9(4) COMP.
       3 PIC X VALUE '0'.
       2 X0000004D.
       3 PIC X(43) VALUE SPACES.
       3 PIC S9(4) COMP.
       3 PIC S9(4) COMP.
       3 PIC S9(4) COMP.
       3 PIC X VALUE '0'.
       2 X0000004E.
       3 PIC X(43) VALUE SPACES.
       3 PIC S9(4) COMP.
       3 PIC S9(4) COMP.
       3 PIC S9(4) COMP.
       3 PIC X VALUE '0'.
       2 X0000004F.
       3 PIC X(43) VALUE SPACES.
       3 PIC S9(4) COMP.
       3 PIC S9(4) COMP.
       3 PIC S9(4) COMP.
       3 PIC X VALUE '0'.
       2 X00000050.
       3 PIC X(43) VALUE SPACES.
       3 PIC S9(4) COMP.
       3 PIC S9(4) COMP.
       3 PIC S9(4) COMP.
       3 PIC X VALUE '0'.
       2 X00000051.
       3 PIC X(43) VALUE SPACES.
       3 PIC S9(4) COMP.
       3 PIC S9(4) COMP.
       3 PIC S9(4) COMP.
       3 PIC X VALUE '0'.
       2 X00000052.
       3 PIC X(43) VALUE SPACES.
       3 PIC S9(4) COMP.
       3 PIC S9(4) COMP.
       3 PIC S9(4) COMP.
       3 PIC X VALUE '0'.
       2 X00000053.
       3 PIC X(43) VALUE SPACES.
       3 PIC S9(4) COMP.
       3 PIC S9(4) COMP.
       3 PIC S9(4) COMP.
       3 PIC X VALUE '0'.
       2 X00000054.
       3 PIC X(43) VALUE SPACES.
       3 PIC S9(4) COMP.
       3 PIC S9(4) COMP.
       3 PIC S9(4) COMP.
       3 PIC X VALUE '0'.
       2 X00000055.
       3 PIC X(43) VALUE SPACES.
       3 PIC S9(4) COMP.
       3 PIC S9(4) COMP.
       3 PIC S9(4) COMP.
       3 PIC X VALUE '0'.
       2 X00000056.
       3 PIC X(35) USAGE DISPLAY
           VALUE 'loadtxd_input_parms/loadtxd_user_cd'.
       3 PIC X(8) USAGE DISPLAY
           VALUE SPACES.
       3 PIC S9(4) COMP VALUE 4.
       3 PIC S9(4) COMP.
       3 PIC S9(4) COMP.
       3 PIC X VALUE '4'.
       2 X00000057.
       3 PIC X(37) USAGE DISPLAY
           VALUE 'loadtxd_input_parms/loadtxd_clause_cd'.
       3 PIC X(6) USAGE DISPLAY
           VALUE SPACES.
       3 PIC S9(4) COMP VALUE 5.
       3 PIC S9(4) COMP.
       3 PIC S9(4) COMP.
       3 PIC X VALUE '4'.
       2 X00000058.
       3 PIC X(43) VALUE SPACES.
       3 PIC S9(4) COMP.
       3 PIC S9(4) COMP.
       3 PIC S9(4) COMP.
       3 PIC X VALUE '0'.
       2 X00000059.
       3 PIC X(43) VALUE SPACES.
       3 PIC S9(4) COMP.
       3 PIC S9(4) COMP.
       3 PIC S9(4) COMP.
       3 PIC X VALUE '0'.
       2 X0000005A.
       3 PIC X(43) VALUE SPACES.
       3 PIC S9(4) COMP.
       3 PIC S9(4) COMP.
       3 PIC S9(4) COMP.
       3 PIC X VALUE '0'.
       2 X0000005B.
       3 PIC X(43) VALUE SPACES.
       3 PIC S9(4) COMP.
       3 PIC S9(4) COMP.
       3 PIC S9(4) COMP.
       3 PIC X VALUE '0'.
       2 X0000005C.
       3 PIC X(43) VALUE SPACES.
       3 PIC S9(4) COMP.
       3 PIC S9(4) COMP.
       3 PIC S9(4) COMP.
       3 PIC X VALUE '0'.
       2 X0000005D.
       3 PIC X(43) VALUE SPACES.
       3 PIC S9(4) COMP.
       3 PIC S9(4) COMP.
       3 PIC S9(4) COMP.
       3 PIC X VALUE '0'.
       2 X0000005E.
       3 PIC X(43) VALUE SPACES.
       3 PIC S9(4) COMP.
       3 PIC S9(4) COMP.
       3 PIC S9(4) COMP.
       3 PIC X VALUE '0'.
       2 X0000005F.
       3 PIC X(43) USAGE DISPLAY
           VALUE 'loadtxd_channel_header/loadtxd_vers_resp_cd'.
       3 PIC S9(4) COMP VALUE 2.
       3 PIC S9(4) COMP.
       3 PIC S9(4) COMP.
       3 PIC X VALUE '4'.
       2 X00000060.
       3 PIC X(43) VALUE SPACES.
       3 PIC S9(4) COMP.
       3 PIC S9(4) COMP.
       3 PIC S9(4) COMP.
       3 PIC X VALUE '0'.
       2 X00000061.
       3 PIC X(43) VALUE SPACES.
       3 PIC S9(4) COMP.
       3 PIC S9(4) COMP.
       3 PIC S9(4) COMP.
       3 PIC X VALUE '0'.
       1 ELEMENT-HASH-TABLE REDEFINES ELEMENT-HASH-ENTRIES.
       2 EHT-ENTRIES OCCURS 47 TIMES.
       3 ELEMENT-NAME PIC X(43).
       3 ROUTING-CODE PIC S9(4) COMP.
       3 NUMERIC-TARGET-CODE PIC S9(4) COMP.
       3 NUMERIC-RESCUE-CODE PIC S9(4) COMP.
       3 CONTENT-TYPE PIC X.
       1 NUMERIC-SOURCES.
       2 PIC X(2) USAGE DISPLAY
           VALUE '-9'.
       2 PIC X(3) USAGE DISPLAY
           VALUE SPACES.
       2 PIC X(3) USAGE DISPLAY
           VALUE '-99'.
       2 PIC X(2) USAGE DISPLAY
           VALUE SPACES.
       2 PIC X(4) USAGE DISPLAY
           VALUE '-999'.
       2 PIC X(1) USAGE DISPLAY
           VALUE SPACES.
       2 PIC X(5) USAGE DISPLAY
           VALUE '-9999'.
       2 PIC X(1) USAGE DISPLAY
           VALUE '9'.
       2 PIC X(4) USAGE DISPLAY
           VALUE SPACES.
       2 PIC X(2) USAGE DISPLAY
           VALUE '99'.
       2 PIC X(3) USAGE DISPLAY
           VALUE SPACES.
       2 PIC X(3) USAGE DISPLAY
           VALUE '999'.
       2 PIC X(2) USAGE DISPLAY
           VALUE SPACES.
       2 PIC X(4) USAGE DISPLAY
           VALUE '9999'.
       2 PIC X(1) USAGE DISPLAY
           VALUE SPACES.
       1 NUMERIC-SOURCES-ARRAY REDEFINES NUMERIC-SOURCES.
       2 NPSA PIC X(5)
           OCCURS 8 TIMES
           ASCENDING NPSA INDEXED BY NPSA-NDX.
       1 NUMERIC-MOVE-RULES.
       2 X00000062.
       3 PIC S9(4) COMP VALUE 1.
       2 X00000063.
       3 PIC S9(4) COMP VALUE 2.
       2 X00000064.
       3 PIC S9(4) COMP VALUE 3.
       2 X00000065.
       3 PIC S9(4) COMP VALUE 4.
       2 X00000066.
       3 PIC S9(4) COMP VALUE 5.
       2 X00000067.
       3 PIC S9(4) COMP VALUE 6.
       2 X00000068.
       3 PIC S9(4) COMP VALUE 7.
       2 X00000069.
       3 PIC S9(4) COMP VALUE 8.
       1 NMAR-TABLE REDEFINES NUMERIC-MOVE-RULES.
       2 OCCURS 8 TIMES.
       3 NMAR-ENTRY PIC S9(4) COMP OCCURS 1 TIMES.
       1 ERROR-MESSAGES.
       2 CONVERTER-ERROR-3.
       3 PIC X(36) USAGE DISPLAY
           VALUE 'Failed To Register Exception Handler'.
       2 CONVERTER-ERROR-4.
       3 PIC X(38) USAGE DISPLAY
           VALUE 'Failed To Unregister Exception Handler'.
       2 CONVERTER-ERROR-7.
       3 PIC X(40) USAGE DISPLAY
           VALUE 'Language Environment Service Call Failed'.
       2 CONVERTER-ERROR-8.
       3 PIC X(35) USAGE DISPLAY
           VALUE 'Language Environment Message Number'.
       2 CONVERTER-ERROR-9.
       3 PIC X(31) USAGE DISPLAY
           VALUE 'XML Converter Is Terminating...'.
       1 XPATH-DELIM PIC X VALUE '/'.
       1 QNAME-DELIM PIC X VALUE ':'.
       LOCAL-STORAGE SECTION.
       1 NUMERIC-PICTURE-STORAGE.
       2 X0000006A PIC X(5).
       2 X0000006B PIC X(1).
       2 X0000006C PIC X(2).
       2 X0000006D PIC X(3).
       2 X0000006E PIC X(4).
       2 X0000006F PIC X(5).
       1 NUMERIC-CHARACTER-STORAGE.
       2 X00000070 PIC X(1).
       2 X00000071 PIC X(2).
       2 X00000072 PIC X(3).
       2 X00000073 PIC X(4).
       2 X00000074 PIC X(5).
       1 VSTRING.
       2 VSTRING-LENGTH PIC S9(4) COMP.
       2 VSTRING-DATA   PIC X(80).
       1 CEESRP-DATA.
       2 RECOVERY-POINT PIC S9(9) COMP.
       2 NUMVAL-ERROR PIC X.
       2 UNICODE-ERROR PIC X.
       2 OTHER-ERROR PIC X.
       2 SAVED-CONDITION PIC X(12).
       1 FEEDBACK-CODE.
       2 CONDITION-TOKEN-VALUE.
       88 CEE000 VALUE X'0000000000000000'.
       88 CEE0E7 VALUE X'000101C749C3C5C5'.
       3 SEVERITY PIC S9(4) BINARY.
       3 MSG-NO PIC S9(4) BINARY.
       3 CASE-SEV-CTL PIC X.
       3 FACILITY PIC XXX.
       2 I-S-INFO PIC S9(9) BINARY.
       1 NEW-CONDITION.
       2 CONDITION-TOKEN-VALUE.
       88 CEE000 VALUE X'0000000000000000'.
       88 CEE0E7 VALUE X'000101C749C3C5C5'.
       3 SEVERITY PIC S9(4) BINARY.
       3 MSG-NO PIC S9(4) BINARY.
       3 CASE-SEV-CTL PIC X.
       3 FACILITY PIC XXX.
       2 I-S-INFO PIC S9(9) BINARY.
       1 HASH-TOKEN PIC X(44).
       1 REDEFINES HASH-TOKEN.
       2 OCCURS 11 TIMES INDEXED BY HASH-DIGIT-NDX.
       3 HASH-DIGIT PIC S9(9) COMP.
       1 HASH-VALUE PIC S9(9) COMP-5.
       1 HASH-DISCARD PIC S9(9) COMP-5.
       1 INTEGER-PART PIC S9(20) COMP-3.
       1 FRACTION-PART PIC SV9(20) COMP-3.
       1 SKIP-ELEMENT PIC X DISPLAY VALUE 'Y'.
       1 ELE-NAME-LEN PIC 9(9) COMP VALUE 0.
       1 ELE-NAME PIC X(240).
       1 ELE-CON-LEN PIC 9(9) COMP VALUE 0.
       1 ELE-CON PIC X(9999).
       1 ELE-CON-NDX PIC 9(9) COMP.
       1 ELE-CHAR-LIMIT PIC 9(9) COMP.
       1 CON-TXED PIC X DISPLAY.
       1 CMP-TMPA PIC S9(9) COMP.
       1 CMP-TMPB PIC S9(9) COMP.
       1 STOP-SEARCH PIC X DISPLAY.
       1 NPSAN PIC 9(9) COMP.
       1 ERROR-CODE PIC S9(9) COMP.
       1 ELEMENT-HITS PIC 9(9) COMP VALUE 0.
       1 SEV PIC S9(4) COMP.
       1 MSGNO PIC S9(4) COMP.
       1 CASE PIC S9(4) COMP.
       1 SEV2 PIC S9(4) COMP.
       1 CNTRL PIC S9(4) COMP.
       1 FACID PIC X(3) DISPLAY.
       1 ISINFO PIC S9(9) COMP.
       1 QDATA PIC S9(9) COMP.
       1 INSERTNO PIC S9(9) COMP.
       1 EEC PIC 9(9) DISPLAY.
       1 ROUTINE PROCEDURE-POINTER.
       1 TOKEN POINTER.
       1 XPATH PIC X(1176).
       1 XPOS PIC 9(9) COMP VALUE 1.
       1 XSTACK-DEPTH PIC 9(9) COMP VALUE 0.
       1 XML-ROOT-FOUND PIC X VALUE 'N'.
       1 XML-NAT-CHAR PIC N USAGE NATIONAL.
       LINKAGE SECTION.
       1 X0000002C PIC -9.
       1 X0000002E PIC -9(2).
       1 X00000030 PIC -9(3).
       1 X00000032 PIC -9(4).
       1 X0000002B PIC 9.
       1 X0000002D PIC 9(2).
       1 X0000002F PIC 9(3).
       1 X00000031 PIC 9(4).
       1 X0000002A DISPLAY PIC +9(4).
       01 LOADTXD-PARM-AREA
           .
       02 LOADTXD-CHANNEL-HEADER
           .
       05 LOADTXD-CHANNEL-ID
           PICTURE X(8)
           USAGE DISPLAY
           .
       05 LOADTXD-VERS-RESP-CD
           PICTURE X(8)
           USAGE DISPLAY
           .
       88 LOADTXD-RESPONSE-SUCCESSFUL
           VALUE
           'WFUT000I'
           .
       88 LOADTXD-RESPONSE-ERROR
           VALUE
           'WFUT999E'
           .
       02 LOADTXD-INPUT-PARMS
           .
       05 LOADTXD-FUNCTION
           PICTURE X(8)
           USAGE DISPLAY
           .
       05 LOADTXD-USER-CD
           PICTURE X(8)
           USAGE DISPLAY
           .
       05 LOADTXD-CLAUSE-CD
           PICTURE X(8)
           USAGE DISPLAY
           .
       05 LOADTXD-PRINT-FLAG
           PICTURE X
           USAGE DISPLAY
           .
       05 LOADTXD-DOC-TYP-SEQ-NBR
           PICTURE +9(4)
           USAGE DISPLAY
           .
       05 LOADTXD-TEXT-ENTY-CD
           PICTURE X(15)
           USAGE DISPLAY
           .
       05 LOADTXD-CHNG-SEQ-NBR
           PICTURE X(3)
           USAGE DISPLAY
           .
       05 LOADTXD-ITEM-NBR
           PICTURE +9(4)
           USAGE DISPLAY
           .
       05 LOADTXD-CMNT-TEXT
           PICTURE X(9999)
           USAGE DISPLAY
           .
       02 LOADTXD-RETURN-STATUS-PARMS
           .
       05 LOADTXD-RETURN-STATUS-CODE
           PICTURE X
           USAGE DISPLAY
           .
       05 LOADTXD-RETURN-MSG-COUNT
           PICTURE 9
           USAGE DISPLAY
           .
       05 LOADTXD-RETURN-MSG-AREA
           .
       10 LOADTXD-RETURN-MSG-NUM
           PICTURE X(6)
           USAGE DISPLAY
           .
       10 LOADTXD-RETURN-MSG-FIELD
           PICTURE X(30)
           USAGE DISPLAY
           .
       10 LOADTXD-RETURN-MSG-TEXT
           PICTURE X(40)
           USAGE DISPLAY
           .
       1 INPUT-XML-LEN PIC 9(9) COMP.
       1 INPUT-XML PIC X(16777210).
       1 OPTIONAL-FEEDBACK-CODE PIC X(12).
       1 CONVERTER-RETURN-CODE PIC S9(9) COMP.
       PROCEDURE DIVISION USING
           LOADTXD-PARM-AREA
           INPUT-XML-LEN
           INPUT-XML
           OPTIONAL-FEEDBACK-CODE
           RETURNING
           CONVERTER-RETURN-CODE.
      * -------------------------------------------------------------
      *              Please Do Not Modify This Program
      * -------------------------------------------------------------
       MAINLINE SECTION.
           MOVE 'N' TO NUMVAL-ERROR UNICODE-ERROR OTHER-ERROR
           PERFORM CHECK-PARAMETERS
           PERFORM REGISTER-EXCEPTION-HANDLER
           PERFORM CHECK-INPUT-MESSAGE-LENGTH
           XML PARSE INPUT-XML (1:INPUT-XML-LEN)
            PROCESSING PROCEDURE XML-HANDLER
            THRU GENERAL-LOGIC-EXIT
            ON EXCEPTION
             PERFORM UNREGISTER-EXCEPTION-HANDLER
             PERFORM SIGNAL-CONDITION
            NOT ON EXCEPTION
             PERFORM UNREGISTER-EXCEPTION-HANDLER
             MOVE ZERO TO CONVERTER-RETURN-CODE
           END-XML
           GOBACK
           .
       CHECK-PARAMETERS.
           IF ADDRESS OF LOADTXD-PARM-AREA EQUAL NULL AND
              ADDRESS OF INPUT-XML-LEN NOT EQUAL NULL
            CALL 'WUT001LJ' USING INPUT-XML-LEN
            GOBACK
           END-IF
           IF ADDRESS OF LOADTXD-PARM-AREA EQUAL NULL OR
              ADDRESS OF INPUT-XML-LEN EQUAL NULL OR
              ADDRESS OF INPUT-XML EQUAL NULL
            MOVE 294 TO MSGNO
            PERFORM SIGNAL-CONDITION
            GOBACK
           END-IF
           .
       CHECK-INPUT-MESSAGE-LENGTH.
           IF INPUT-XML-LEN > 16777210
            MOVE 285 TO MSGNO
            PERFORM UNREGISTER-EXCEPTION-HANDLER
            PERFORM SIGNAL-CONDITION
            GOBACK
           END-IF
           .
       XML-HANDLER.
           EVALUATE XML-EVENT
           WHEN 'CONTENT-CHARACTERS'
            IF SKIP-ELEMENT = 'N'
             COMPUTE CMP-TMPB = FUNCTION LENGTH (XML-TEXT)
             COMPUTE CMP-TMPA = ELE-CON-LEN + CMP-TMPB
             IF CMP-TMPA <= 9999
              MOVE XML-TEXT
               TO ELE-CON (ELE-CON-NDX:CMP-TMPB)
              ADD CMP-TMPB TO ELE-CON-LEN ELE-CON-NDX
             ELSE
              MOVE CMP-TMPA TO ELE-CON-LEN
              GO TO CHARACTER-BUFFER-OVERFLOW
             END-IF
            END-IF
           WHEN 'START-OF-ELEMENT'
            PERFORM PUSH-ELEMENT
            IF XSTACK-DEPTH > 1 AND
               (XPOS - 2) <= 43
             MOVE ALL X'00' TO HASH-TOKEN
             MOVE XPATH(2:XPOS - 2) TO HASH-TOKEN
             (44 - (XPOS - 3):XPOS - 2)
             MOVE 0 TO HASH-VALUE
             SET HASH-DIGIT-NDX TO 1
             PERFORM 11 TIMES
              ADD HASH-DIGIT (HASH-DIGIT-NDX) TO
              HASH-VALUE
              SET HASH-DIGIT-NDX UP BY 1
             END-PERFORM
             DIVIDE HASH-VALUE BY 47 GIVING HASH-DISCARD
              REMAINDER HASH-VALUE
             END-DIVIDE
             IF HASH-VALUE LESS THAN ZERO
              ADD 47 TO HASH-VALUE
             ELSE
              ADD 1 TO HASH-VALUE
             END-IF
             IF ELEMENT-NAME (HASH-VALUE)
                = XPATH(2:XPOS - 2)
              MOVE 'N' TO SKIP-ELEMENT
              ADD 1 TO ELEMENT-HITS
              MOVE 'N' TO CON-TXED
              MOVE ZERO TO ELE-CON-LEN
              MOVE 1 TO ELE-CON-NDX
              IF CONTENT-TYPE (HASH-VALUE) = '1'
               GO TO ROUTE-ELEMENT
              END-IF
             ELSE
              MOVE 'Y' TO SKIP-ELEMENT
             END-IF
            ELSE
             MOVE 'Y' TO SKIP-ELEMENT
            END-IF
           WHEN 'END-OF-ELEMENT'
            IF XSTACK-DEPTH > 1
             IF SKIP-ELEMENT = 'N' AND CON-TXED = 'N' AND
                ELEMENT-NAME(HASH-VALUE)
                = XPATH(2:XPOS - 2)
              PERFORM POP-ELEMENT
              GO TO ROUTE-ELEMENT
             ELSE
              PERFORM POP-ELEMENT
             END-IF
            END-IF
           WHEN 'CONTENT-CHARACTER'
            IF SKIP-ELEMENT = 'N'
             COMPUTE CMP-TMPB = FUNCTION LENGTH (XML-TEXT)
             COMPUTE CMP-TMPA = ELE-CON-LEN + CMP-TMPB
             IF CMP-TMPA <= 9999
              MOVE XML-TEXT
               TO ELE-CON (ELE-CON-NDX:CMP-TMPB)
              ADD CMP-TMPB TO ELE-CON-LEN ELE-CON-NDX
             ELSE
              MOVE CMP-TMPA TO ELE-CON-LEN
              GO TO CHARACTER-BUFFER-OVERFLOW
             END-IF
            END-IF
           WHEN 'CONTENT-NATIONAL-CHARACTER'
            IF SKIP-ELEMENT = 'N'
             COMPUTE CMP-TMPB = FUNCTION LENGTH (XML-NTEXT)
             IF CMP-TMPB > 1
              MOVE SPACE TO XML-NAT-CHAR
             ELSE
              MOVE XML-NTEXT TO XML-NAT-CHAR
             END-IF
             COMPUTE CMP-TMPA = ELE-CON-LEN + 1
             IF CMP-TMPA <= 9999
              COMPUTE CMP-TMPB = FUNCTION LENGTH (
               FUNCTION DISPLAY-OF (XML-NAT-CHAR))
              IF CMP-TMPB > 1
               MOVE SPACE
                TO ELE-CON (ELE-CON-NDX:1)
              ELSE
               MOVE FUNCTION DISPLAY-OF (XML-NAT-CHAR)
                TO ELE-CON (ELE-CON-NDX:1)
              END-IF
              ADD 1 TO ELE-CON-LEN ELE-CON-NDX
             ELSE
              MOVE CMP-TMPA TO ELE-CON-LEN
              GO TO CHARACTER-BUFFER-OVERFLOW
             END-IF
            END-IF
           WHEN 'START-OF-DOCUMENT'
            CALL 'CEE3SRP' USING RECOVERY-POINT FEEDBACK-CODE
            SERVICE LABEL
            IF NUMVAL-ERROR = 'Y'
             MOVE 284 TO MSGNO
             MOVE -1 TO XML-CODE
            END-IF
            IF UNICODE-ERROR = 'Y'
             MOVE 288 TO MSGNO
             MOVE -1 TO XML-CODE
            END-IF
            IF OTHER-ERROR = 'Y'
             MOVE -1 TO XML-CODE
            END-IF
           WHEN 'END-OF-DOCUMENT'
            IF ELEMENT-HITS = 0
             MOVE 282 TO MSGNO
             MOVE -1 TO XML-CODE
            END-IF
           WHEN 'EXCEPTION'
            IF XML-CODE >= 50 AND XML-CODE <= 99
             MOVE 0 TO XML-CODE
            ELSE
             MOVE 280 TO MSGNO
             MOVE -1 TO XML-CODE
            END-IF
           END-EVALUATE
           GO TO GENERAL-LOGIC-EXIT
           .
       PUSH-ELEMENT.
           PERFORM PARSE-ELEMENT
           IF XML-ROOT-FOUND = 'N' AND
            ELE-NAME (1:ELE-NAME-LEN)
             = XML-ROOT-ELEMENT
            MOVE 'Y' TO XML-ROOT-FOUND
           END-IF
           IF XML-ROOT-FOUND = 'Y'
            IF XSTACK-DEPTH >= 1
             COMPUTE CMP-TMPA = XPOS + (ELE-NAME-LEN + 1)
             IF CMP-TMPA <= 1176
              MOVE XPATH-DELIM TO XPATH (XPOS:1)
              MOVE ELE-NAME (1:ELE-NAME-LEN)
               TO XPATH (XPOS + 1:ELE-NAME-LEN)
              COMPUTE XPOS = XPOS + (ELE-NAME-LEN + 1)
             ELSE
              COMPUTE ELE-NAME-LEN = FUNCTION LENGTH (XML-TEXT)
              MOVE XML-TEXT TO ELE-NAME
              MOVE 291 TO MSGNO
              MOVE -1 TO XML-CODE
             END-IF
            END-IF
            ADD 1 TO XSTACK-DEPTH
           END-IF
           .
       POP-ELEMENT.
           IF XSTACK-DEPTH > 0
            PERFORM PARSE-ELEMENT
            COMPUTE XPOS = XPOS - (ELE-NAME-LEN + 1)
            SUBTRACT 1 FROM XSTACK-DEPTH
           END-IF
           .
       PARSE-ELEMENT.
           COMPUTE ELE-NAME-LEN = FUNCTION LENGTH (XML-TEXT)
           MOVE 1 TO CMP-TMPB
           PERFORM VARYING CMP-TMPA FROM 1 BY 1
            UNTIL CMP-TMPA > ELE-NAME-LEN
            IF XML-TEXT (CMP-TMPA:1) = QNAME-DELIM
             COMPUTE CMP-TMPB = CMP-TMPA + 1
             MOVE ELE-NAME-LEN TO CMP-TMPA
            END-IF
           END-PERFORM
           IF CMP-TMPB > 1
            COMPUTE ELE-NAME-LEN
             = (ELE-NAME-LEN - CMP-TMPB) + 1
            IF ELE-NAME-LEN <= 23
             MOVE XML-TEXT (CMP-TMPB:ELE-NAME-LEN)
              TO ELE-NAME (1:ELE-NAME-LEN)
            ELSE
             MOVE 0 TO ELE-NAME-LEN
            END-IF
           ELSE
            IF ELE-NAME-LEN <= 23
             MOVE XML-TEXT (1:ELE-NAME-LEN)
              TO ELE-NAME (1:ELE-NAME-LEN)
            ELSE
             MOVE 0 TO ELE-NAME-LEN
            END-IF
           END-IF
           IF ELE-NAME-LEN = 0
            MOVE 1 TO ELE-NAME-LEN
            MOVE '0' TO ELE-NAME (1:ELE-NAME-LEN)
           END-IF
           .
       ROUTE-ELEMENT.
           GO TO
            X00000075
            X00000076
            X00000077
            X00000078
            X00000079
            X0000007A
            X0000007B
            X0000007C
            X0000007D
            X0000007E
            X0000007F
           DEPENDING ON ROUTING-CODE (HASH-VALUE)
           GO TO GENERAL-LOGIC-EXIT
           .
       CONTENT-PROCESSING SECTION.
       X00000075.
           IF ELE-CON-LEN = 0
            MOVE SPACES TO
             LOADTXD-CHANNEL-ID
             OF LOADTXD-CHANNEL-HEADER
             OF LOADTXD-PARM-AREA
            GO TO CONTENT-CONVERTED-EXIT
           END-IF
           IF ELE-CON-LEN <= 8
            MOVE ELE-CON (1:ELE-CON-LEN) TO
             LOADTXD-CHANNEL-ID
              OF LOADTXD-CHANNEL-HEADER
              OF LOADTXD-PARM-AREA
            GO TO CONTENT-CONVERTED-EXIT
           END-IF
           MOVE 8 TO ELE-CHAR-LIMIT
           GO TO CHARACTER-CONTENT-OVERFLOW
           .
       X00000076.
           IF ELE-CON-LEN = 0
            MOVE SPACES TO
             LOADTXD-VERS-RESP-CD
             OF LOADTXD-CHANNEL-HEADER
             OF LOADTXD-PARM-AREA
            GO TO CONTENT-CONVERTED-EXIT
           END-IF
           IF ELE-CON-LEN <= 8
            MOVE ELE-CON (1:ELE-CON-LEN) TO
             LOADTXD-VERS-RESP-CD
              OF LOADTXD-CHANNEL-HEADER
              OF LOADTXD-PARM-AREA
            GO TO CONTENT-CONVERTED-EXIT
           END-IF
           MOVE 8 TO ELE-CHAR-LIMIT
           GO TO CHARACTER-CONTENT-OVERFLOW
           .
       X00000077.
           IF ELE-CON-LEN = 0
            MOVE SPACES TO
             LOADTXD-FUNCTION
             OF LOADTXD-INPUT-PARMS
             OF LOADTXD-PARM-AREA
            GO TO CONTENT-CONVERTED-EXIT
           END-IF
           IF ELE-CON-LEN <= 8
            MOVE ELE-CON (1:ELE-CON-LEN) TO
             LOADTXD-FUNCTION
              OF LOADTXD-INPUT-PARMS
              OF LOADTXD-PARM-AREA
            GO TO CONTENT-CONVERTED-EXIT
           END-IF
           MOVE 8 TO ELE-CHAR-LIMIT
           GO TO CHARACTER-CONTENT-OVERFLOW
           .
       X00000078.
           IF ELE-CON-LEN = 0
            MOVE SPACES TO
             LOADTXD-USER-CD
             OF LOADTXD-INPUT-PARMS
             OF LOADTXD-PARM-AREA
            GO TO CONTENT-CONVERTED-EXIT
           END-IF
           IF ELE-CON-LEN <= 8
            MOVE ELE-CON (1:ELE-CON-LEN) TO
             LOADTXD-USER-CD
              OF LOADTXD-INPUT-PARMS
              OF LOADTXD-PARM-AREA
            GO TO CONTENT-CONVERTED-EXIT
           END-IF
           MOVE 8 TO ELE-CHAR-LIMIT
           GO TO CHARACTER-CONTENT-OVERFLOW
           .
       X00000079.
           IF ELE-CON-LEN = 0
            MOVE SPACES TO
             LOADTXD-CLAUSE-CD
             OF LOADTXD-INPUT-PARMS
             OF LOADTXD-PARM-AREA
            GO TO CONTENT-CONVERTED-EXIT
           END-IF
           IF ELE-CON-LEN <= 8
            MOVE ELE-CON (1:ELE-CON-LEN) TO
             LOADTXD-CLAUSE-CD
              OF LOADTXD-INPUT-PARMS
              OF LOADTXD-PARM-AREA
            GO TO CONTENT-CONVERTED-EXIT
           END-IF
           MOVE 8 TO ELE-CHAR-LIMIT
           GO TO CHARACTER-CONTENT-OVERFLOW
           .
       X0000007A.
           IF ELE-CON-LEN = 0
            MOVE SPACES TO
             LOADTXD-PRINT-FLAG
             OF LOADTXD-INPUT-PARMS
             OF LOADTXD-PARM-AREA
            GO TO CONTENT-CONVERTED-EXIT
           END-IF
           IF ELE-CON-LEN <= 1
            MOVE ELE-CON (1:ELE-CON-LEN) TO
             LOADTXD-PRINT-FLAG
              OF LOADTXD-INPUT-PARMS
              OF LOADTXD-PARM-AREA
            GO TO CONTENT-CONVERTED-EXIT
           END-IF
           MOVE 1 TO ELE-CHAR-LIMIT
           GO TO CHARACTER-CONTENT-OVERFLOW
           .
       X0000007B.
           IF ELE-CON-LEN = 0
            MOVE ZEROS TO
             LOADTXD-DOC-TYP-SEQ-NBR
             OF LOADTXD-INPUT-PARMS
             OF LOADTXD-PARM-AREA
            GO TO CONTENT-CONVERTED-EXIT
           END-IF
           SET ADDRESS OF X0000002A TO ADDRESS OF
            LOADTXD-DOC-TYP-SEQ-NBR
             OF LOADTXD-INPUT-PARMS
             OF LOADTXD-PARM-AREA
           GO TO
            X00000080
            X00000081
            X00000082
            X00000083
            X00000084
           DEPENDING ON ELE-CON-LEN
           GO TO NUMERIC-RESCUE
           .
       X0000007C.
           IF ELE-CON-LEN = 0
            MOVE SPACES TO
             LOADTXD-TEXT-ENTY-CD
             OF LOADTXD-INPUT-PARMS
             OF LOADTXD-PARM-AREA
            GO TO CONTENT-CONVERTED-EXIT
           END-IF
           IF ELE-CON-LEN <= 15
            MOVE ELE-CON (1:ELE-CON-LEN) TO
             LOADTXD-TEXT-ENTY-CD
              OF LOADTXD-INPUT-PARMS
              OF LOADTXD-PARM-AREA
            GO TO CONTENT-CONVERTED-EXIT
           END-IF
           MOVE 15 TO ELE-CHAR-LIMIT
           GO TO CHARACTER-CONTENT-OVERFLOW
           .
       X0000007D.
           IF ELE-CON-LEN = 0
            MOVE SPACES TO
             LOADTXD-CHNG-SEQ-NBR
             OF LOADTXD-INPUT-PARMS
             OF LOADTXD-PARM-AREA
            GO TO CONTENT-CONVERTED-EXIT
           END-IF
           IF ELE-CON-LEN <= 3
            MOVE ELE-CON (1:ELE-CON-LEN) TO
             LOADTXD-CHNG-SEQ-NBR
              OF LOADTXD-INPUT-PARMS
              OF LOADTXD-PARM-AREA
            GO TO CONTENT-CONVERTED-EXIT
           END-IF
           MOVE 3 TO ELE-CHAR-LIMIT
           GO TO CHARACTER-CONTENT-OVERFLOW
           .
       X0000007E.
           IF ELE-CON-LEN = 0
            MOVE ZEROS TO
             LOADTXD-ITEM-NBR
             OF LOADTXD-INPUT-PARMS
             OF LOADTXD-PARM-AREA
            GO TO CONTENT-CONVERTED-EXIT
           END-IF
           SET ADDRESS OF X0000002A TO ADDRESS OF
            LOADTXD-ITEM-NBR
             OF LOADTXD-INPUT-PARMS
             OF LOADTXD-PARM-AREA
           GO TO
            X00000080
            X00000081
            X00000082
            X00000083
            X00000084
           DEPENDING ON ELE-CON-LEN
           GO TO NUMERIC-RESCUE
           .
       X0000007F.
           IF ELE-CON-LEN = 0
            MOVE SPACES TO
             LOADTXD-CMNT-TEXT
             OF LOADTXD-INPUT-PARMS
             OF LOADTXD-PARM-AREA
            GO TO CONTENT-CONVERTED-EXIT
           END-IF
           IF ELE-CON-LEN <= 9999
            MOVE ELE-CON (1:ELE-CON-LEN) TO
             LOADTXD-CMNT-TEXT
              OF LOADTXD-INPUT-PARMS
              OF LOADTXD-PARM-AREA
            GO TO CONTENT-CONVERTED-EXIT
           END-IF
           MOVE 9999 TO ELE-CHAR-LIMIT
           GO TO CHARACTER-CONTENT-OVERFLOW
           .
       CHARACTER-CONTENT-OVERFLOW.
           MOVE 283 TO MSGNO
           MOVE -1 TO XML-CODE
           GO TO GENERAL-LOGIC-EXIT
           .
       CHARACTER-BUFFER-OVERFLOW.
           MOVE 286 TO MSGNO
           MOVE -1 TO XML-CODE
           GO TO GENERAL-LOGIC-EXIT
           .
       COMPUTE-LOOKUP-SOURCE SECTION.
       X00000080.
           MOVE ELE-CON (1:1) TO X00000070 X0000006B
           INSPECT X0000006B REPLACING ALL
            '0' BY '9' '1' BY '9' '2' BY '9' '3' BY '9' '4' BY '9'
            '5' BY '9' '6' BY '9' '7' BY '9' '8' BY '9' ' ' BY '?'
           MOVE X0000006B TO X0000006A
           GO TO LOOKUP-SOURCE
           .
       X00000081.
           MOVE ELE-CON (1:2) TO X00000071 X0000006C
           INSPECT X0000006C REPLACING ALL
            '0' BY '9' '1' BY '9' '2' BY '9' '3' BY '9' '4' BY '9'
            '5' BY '9' '6' BY '9' '7' BY '9' '8' BY '9' ' ' BY '?'
           MOVE X0000006C TO X0000006A
           GO TO LOOKUP-SOURCE
           .
       X00000082.
           MOVE ELE-CON (1:3) TO X00000072 X0000006D
           INSPECT X0000006D REPLACING ALL
            '0' BY '9' '1' BY '9' '2' BY '9' '3' BY '9' '4' BY '9'
            '5' BY '9' '6' BY '9' '7' BY '9' '8' BY '9' ' ' BY '?'
           MOVE X0000006D TO X0000006A
           GO TO LOOKUP-SOURCE
           .
       X00000083.
           MOVE ELE-CON (1:4) TO X00000073 X0000006E
           INSPECT X0000006E REPLACING ALL
            '0' BY '9' '1' BY '9' '2' BY '9' '3' BY '9' '4' BY '9'
            '5' BY '9' '6' BY '9' '7' BY '9' '8' BY '9' ' ' BY '?'
           MOVE X0000006E TO X0000006A
           GO TO LOOKUP-SOURCE
           .
       X00000084.
           MOVE ELE-CON (1:5) TO X00000074 X0000006F
           INSPECT X0000006F REPLACING ALL
            '0' BY '9' '1' BY '9' '2' BY '9' '3' BY '9' '4' BY '9'
            '5' BY '9' '6' BY '9' '7' BY '9' '8' BY '9' ' ' BY '?'
           MOVE X0000006F TO X0000006A
           GO TO LOOKUP-SOURCE
           .
       LOOKUP-SOURCE.
           SEARCH ALL NPSA
            AT END
             GO TO NUMERIC-RESCUE
            WHEN NPSA (NPSA-NDX) = X0000006A
             SET NPSAN TO NPSA-NDX
           END-SEARCH
           GO TO
            X00000085
            X00000086
            X00000087
            X00000088
            X00000089
            X0000008A
            X0000008B
            X0000008C
           DEPENDING ON NPSAN
           GO TO NUMERIC-RESCUE
           .
       SET-NUMERIC-SOURCE SECTION.
       X00000085.
           SET ADDRESS OF X0000002C
            TO ADDRESS OF X00000071
           GO TO COMPLETE-NUMERIC-MOVE
           .
       X00000086.
           SET ADDRESS OF X0000002E
            TO ADDRESS OF X00000072
           GO TO COMPLETE-NUMERIC-MOVE
           .
       X00000087.
           SET ADDRESS OF X00000030
            TO ADDRESS OF X00000073
           GO TO COMPLETE-NUMERIC-MOVE
           .
       X00000088.
           SET ADDRESS OF X00000032
            TO ADDRESS OF X00000074
           GO TO COMPLETE-NUMERIC-MOVE
           .
       X00000089.
           SET ADDRESS OF X0000002B
            TO ADDRESS OF X00000070
           GO TO COMPLETE-NUMERIC-MOVE
           .
       X0000008A.
           SET ADDRESS OF X0000002D
            TO ADDRESS OF X00000071
           GO TO COMPLETE-NUMERIC-MOVE
           .
       X0000008B.
           SET ADDRESS OF X0000002F
            TO ADDRESS OF X00000072
           GO TO COMPLETE-NUMERIC-MOVE
           .
       X0000008C.
           SET ADDRESS OF X00000031
            TO ADDRESS OF X00000073
           GO TO COMPLETE-NUMERIC-MOVE
           .
       MOVE-NUMERIC SECTION.
       COMPLETE-NUMERIC-MOVE.
           MOVE NUMERIC-TARGET-CODE (HASH-VALUE) TO CMP-TMPA
           GO TO
            X0000008D
            X0000008E
            X0000008F
            X00000090
            X00000091
            X00000092
            X00000093
            X00000094
           DEPENDING ON NMAR-ENTRY (NPSAN, CMP-TMPA)
           GO TO NUMERIC-RESCUE
           .
       X0000008D.
           MOVE X0000002C TO X0000002A
           GO TO CONTENT-CONVERTED-EXIT
           .
       X0000008E.
           MOVE X0000002E TO X0000002A
           GO TO CONTENT-CONVERTED-EXIT
           .
       X0000008F.
           MOVE X00000030 TO X0000002A
           GO TO CONTENT-CONVERTED-EXIT
           .
       X00000090.
           MOVE X00000032 TO X0000002A
           GO TO CONTENT-CONVERTED-EXIT
           .
       X00000091.
           MOVE X0000002B TO X0000002A
           GO TO CONTENT-CONVERTED-EXIT
           .
       X00000092.
           MOVE X0000002D TO X0000002A
           GO TO CONTENT-CONVERTED-EXIT
           .
       X00000093.
           MOVE X0000002F TO X0000002A
           GO TO CONTENT-CONVERTED-EXIT
           .
       X00000094.
           MOVE X00000031 TO X0000002A
           GO TO CONTENT-CONVERTED-EXIT
           .
       NUMERIC-RESCUE-PROCESSING SECTION.
       NUMERIC-RESCUE.
           GO TO
            X00000095
            X00000096
           DEPENDING ON NUMERIC-RESCUE-CODE (HASH-VALUE)
           .
       X00000095.
           COMPUTE LOADTXD-DOC-TYP-SEQ-NBR
             OF LOADTXD-INPUT-PARMS
             OF LOADTXD-PARM-AREA
             = FUNCTION NUMVAL-C(ELE-CON (1:ELE-CON-LEN))
            ON SIZE ERROR
             GO TO NUMERIC-RESCUE-FAILED
            NOT ON SIZE ERROR
             GO TO CONTENT-CONVERTED-EXIT
           END-COMPUTE
           .
       X00000096.
           COMPUTE LOADTXD-ITEM-NBR
             OF LOADTXD-INPUT-PARMS
             OF LOADTXD-PARM-AREA
             = FUNCTION NUMVAL-C(ELE-CON (1:ELE-CON-LEN))
            ON SIZE ERROR
             GO TO NUMERIC-RESCUE-FAILED
            NOT ON SIZE ERROR
             GO TO CONTENT-CONVERTED-EXIT
           END-COMPUTE
           .
       NUMERIC-RESCUE-FAILED.
           MOVE 284 TO MSGNO
           MOVE -1 TO XML-CODE
           GO TO GENERAL-LOGIC-EXIT
           .
       CONTENT-CONVERTED-EXIT.
           MOVE 'Y' TO CON-TXED
           .
       GENERAL-LOGIC-EXIT.
           CONTINUE
           .
       SIGNAL-CONDITION.
           IF OTHER-ERROR = 'N'
            MOVE 3 TO SEV SEV2
            MOVE 1 TO CASE CNTRL
            MOVE 0 TO ISINFO
            MOVE 0 TO INSERTNO
            MOVE 'IGZ' TO FACID
            CALL 'CEENCOD' USING
              SEV MSGNO CASE SEV2
              CNTRL FACID ISINFO
              NEW-CONDITION FEEDBACK-CODE
            PERFORM CHECK-LE-SERVICE-FC
            MOVE 8 TO VSTRING-LENGTH
            MOVE 'WUT001LI' TO VSTRING-DATA (1:8)
            PERFORM INSERT-VSTRING
            EVALUATE MSGNO
             WHEN 280
              MOVE XML-CODE TO ERROR-CODE
              MOVE ERROR-CODE TO EEC
              PERFORM INSERT-NUMBER
              PERFORM INSERT-ELE-NAME
              PERFORM INSERT-ELE-CON
             WHEN 281
              MOVE MSGNO TO ERROR-CODE
              PERFORM INSERT-ELE-NAME
             WHEN 282
              MOVE MSGNO TO ERROR-CODE
             WHEN 283
              MOVE MSGNO TO ERROR-CODE
              PERFORM INSERT-ELE-NAME
              MOVE ELE-CHAR-LIMIT TO EEC
              PERFORM INSERT-NUMBER
             WHEN 284
              MOVE MSGNO TO ERROR-CODE
              PERFORM INSERT-ELE-NAME
              PERFORM INSERT-ELE-CON
             WHEN 285
              MOVE MSGNO TO ERROR-CODE
              MOVE INPUT-XML-LEN TO EEC
              PERFORM INSERT-NUMBER
              MOVE 16777210 TO EEC
              PERFORM INSERT-NUMBER
             WHEN 286
              MOVE MSGNO TO ERROR-CODE
              PERFORM INSERT-ELE-NAME
              MOVE ELE-CON-LEN TO EEC
              PERFORM INSERT-NUMBER
             WHEN 288
              MOVE MSGNO TO ERROR-CODE
              MOVE 1200 TO EEC
              PERFORM INSERT-NUMBER
              MOVE 37 TO EEC
              PERFORM INSERT-NUMBER
             WHEN 291
              MOVE MSGNO TO ERROR-CODE
              PERFORM INSERT-ELE-NAME
              PERFORM INSERT-ELE-CON
             WHEN 294
              MOVE MSGNO TO ERROR-CODE
            END-EVALUATE
           ELSE
            MOVE SAVED-CONDITION TO NEW-CONDITION
            MOVE MSG-NO OF NEW-CONDITION TO ERROR-CODE
           END-IF
           MOVE 0 TO QDATA
           IF ADDRESS OF OPTIONAL-FEEDBACK-CODE = NULL
            CALL 'CEESGL' USING NEW-CONDITION QDATA OMITTED
           ELSE
            MOVE NEW-CONDITION TO OPTIONAL-FEEDBACK-CODE
           END-IF
           IF MSGNO NOT EQUAL 294
            MOVE ERROR-CODE TO CONVERTER-RETURN-CODE
           END-IF
           .
       INSERT-ELE-NAME.
           IF ELE-NAME-LEN > 80
            MOVE 80 TO ELE-NAME-LEN
            MOVE '...' TO ELE-NAME (78:3)
           END-IF
           IF ELE-NAME-LEN <= 0
            MOVE 1 TO ELE-NAME-LEN
            MOVE '?' TO ELE-NAME
           END-IF
           MOVE ELE-NAME-LEN TO VSTRING-LENGTH
           MOVE ELE-NAME TO VSTRING-DATA (1:80)
           PERFORM INSERT-VSTRING
           .
       INSERT-ELE-CON.
           IF ELE-CON-LEN > 80
            MOVE 80 TO ELE-CON-LEN
            MOVE '...' TO ELE-CON (78:3)
           END-IF
           IF ELE-CON-LEN <= 0
            MOVE 1 TO ELE-CON-LEN
            MOVE '?' TO ELE-CON
           END-IF
           MOVE ELE-CON-LEN TO VSTRING-LENGTH
           MOVE ELE-CON TO VSTRING-DATA (1:80)
           PERFORM INSERT-VSTRING
           .
       INSERT-NUMBER.
           MOVE ZERO TO CMP-TMPA
           INSPECT EEC TALLYING CMP-TMPA FOR LEADING '0'
           COMPUTE CMP-TMPB = 9 - CMP-TMPA
           MOVE CMP-TMPB TO VSTRING-LENGTH
           MOVE EEC (CMP-TMPA + 1:CMP-TMPB) TO VSTRING-DATA
           PERFORM INSERT-VSTRING
           .
       INSERT-VSTRING.
           ADD 1 TO INSERTNO
           CALL 'CEECMI' USING
            NEW-CONDITION INSERTNO
            VSTRING FEEDBACK-CODE
           PERFORM CHECK-LE-SERVICE-FC
           .
       CHECK-LE-SERVICE-FC.
           IF NOT CEE000 OF FEEDBACK-CODE
            DISPLAY CONVERTER-ERROR-7
            DISPLAY CONVERTER-ERROR-8 ' '
             FACILITY OF FEEDBACK-CODE
             MSG-NO OF FEEDBACK-CODE
            DISPLAY CONVERTER-ERROR-9
            STOP RUN
           END-IF
           .
       REGISTER-EXCEPTION-HANDLER.
           SET ROUTINE TO ENTRY 'WUT001LA'
           SET TOKEN TO ADDRESS OF CEESRP-DATA
           CALL 'CEEHDLR' USING ROUTINE TOKEN FEEDBACK-CODE
           IF NOT CEE000 OF FEEDBACK-CODE
            DISPLAY CONVERTER-ERROR-3
            STOP RUN
           END-IF
           .
       UNREGISTER-EXCEPTION-HANDLER.
           CALL 'CEEHDLU' USING ROUTINE FEEDBACK-CODE
           IF NOT CEE000 OF FEEDBACK-CODE
            DISPLAY CONVERTER-ERROR-4
            STOP RUN
           END-IF
           .
       END PROGRAM 'WUT001LI'.
      *          *********************************************
      *    *********************************************************
      *  *************************************************************
      *        Maximum Inbound Language Structure Size In Bytes
      *  *************************************************************
      *    *********************************************************
      *          *********************************************
       IDENTIFICATION DIVISION.
        PROGRAM-ID. 'WUT001LJ'.
        AUTHOR. DEVHV.
        INSTALLATION. 7.17.600.V200712031646.
        DATE-WRITTEN. 4/8/08 2:08 PM.
       DATA DIVISION.
       WORKING-STORAGE SECTION.
       LINKAGE SECTION.
       1 INSTRUCT-MAX-SIZE PIC 9(9) COMP.
       PROCEDURE DIVISION USING INSTRUCT-MAX-SIZE.
       MAINLINE SECTION.
           MOVE 10146 TO INSTRUCT-MAX-SIZE
           GOBACK
           .
       END PROGRAM 'WUT001LJ'.
      *          *********************************************
      *    *********************************************************
      *  *************************************************************
      *            Inbound XML Converter Exception Handler
      *  *************************************************************
      *    *********************************************************
      *          *********************************************
       IDENTIFICATION DIVISION.
        PROGRAM-ID. 'WUT001LA'.
        AUTHOR. DEVHV.
        INSTALLATION. 7.17.600.V200712031646.
        DATE-WRITTEN. 4/8/08 2:08 PM.
       DATA DIVISION.
       WORKING-STORAGE SECTION.
       1 CONVERTER-ERROR-6.
       2 PIC X(39) USAGE DISPLAY
           VALUE 'Failed To Resume Execution Of Converter'.
       LOCAL-STORAGE SECTION.
       1 FEEDBACK-CODE.
       2 CONDITION-TOKEN-VALUE.
       88 CEE000 VALUE X'0000000000000000'.
       88 CEE0E7 VALUE X'000101C749C3C5C5'.
       3 SEVERITY PIC S9(4) BINARY.
       3 MSG-NO PIC S9(4) BINARY.
       3 CASE-SEV-CTL PIC X.
       3 FACILITY PIC XXX.
       2 I-S-INFO PIC S9(9) BINARY.
       LINKAGE SECTION.
       1 CEESRP-DATA.
       2 RECOVERY-POINT PIC S9(9) COMP.
       2 NUMVAL-ERROR PIC X.
       2 UNICODE-ERROR PIC X.
       2 OTHER-ERROR PIC X.
       2 SAVED-CONDITION PIC X(12).
       1 TOKEN  POINTER.
       1 RESULT PIC S9(9) COMP.
       88 RESUME VALUE 10.
       1 CURRENT-CONDITION.
       2 CONDITION-TOKEN-VALUE.
       88 CEE000 VALUE X'0000000000000000'.
       88 CEE0E7 VALUE X'000101C749C3C5C5'.
       3 SEVERITY PIC S9(4) BINARY.
       3 MSG-NO PIC S9(4) BINARY.
       3 CASE-SEV-CTL PIC X.
       3 FACILITY PIC XXX.
       2 I-S-INFO PIC S9(9) BINARY.
       1 NEW-CONDITION.
       2 CONDITION-TOKEN-VALUE.
       88 CEE000 VALUE X'0000000000000000'.
       88 CEE0E7 VALUE X'000101C749C3C5C5'.
       3 SEVERITY PIC S9(4) BINARY.
       3 MSG-NO PIC S9(4) BINARY.
       3 CASE-SEV-CTL PIC X.
       3 FACILITY PIC XXX.
       2 I-S-INFO PIC S9(9) BINARY.
       PROCEDURE DIVISION USING CURRENT-CONDITION TOKEN
           RESULT NEW-CONDITION.
       MAINLINE SECTION.
      * -------------------------------------------------------------
      *              Please Do Not Modify This Program
      * -------------------------------------------------------------
           SET ADDRESS OF CEESRP-DATA TO TOKEN
           CALL 'CEEMRCE' USING RECOVERY-POINT FEEDBACK-CODE
           IF NOT CEE000 OF FEEDBACK-CODE
            DISPLAY CONVERTER-ERROR-6
           END-IF
           SET RESUME TO TRUE
           IF FACILITY OF CURRENT-CONDITION = 'IGZ'
            EVALUATE MSG-NO OF CURRENT-CONDITION
             WHEN 97
             WHEN 151
             WHEN 152
             WHEN 155
             WHEN 196
              MOVE 'Y' TO NUMVAL-ERROR
             WHEN 272
              MOVE 'Y' TO UNICODE-ERROR
             WHEN OTHER
              MOVE 'Y' TO OTHER-ERROR
            END-EVALUATE
           ELSE
            MOVE 'Y' TO OTHER-ERROR
           END-IF
           MOVE CURRENT-CONDITION TO SAVED-CONDITION
           GOBACK
           .
       END PROGRAM 'WUT001LA'.
       PROCESS  NODYNAM,OPT,CODEPAGE(37),NSYMBOL(NATIONAL),NOCICS
       PROCESS  ARITH(EXTEND)
      *          *********************************************
      *    *********************************************************
      *  *************************************************************
      *                     Outbound XML Converter
      *  *************************************************************
      *    *********************************************************
      *          *********************************************
       IDENTIFICATION DIVISION.
        PROGRAM-ID. 'WUT001LO'.
        AUTHOR. DEVHV.
        INSTALLATION. 7.17.600.V200712031646.
        DATE-WRITTEN. 4/8/08 2:08 PM.
       DATA DIVISION.
       WORKING-STORAGE SECTION.
       1 ERROR-MESSAGES.
       2 CONVERTER-ERROR-3.
       3 PIC X(36) USAGE DISPLAY
           VALUE 'Failed To Register Exception Handler'.
       2 CONVERTER-ERROR-4.
       3 PIC X(38) USAGE DISPLAY
           VALUE 'Failed To Unregister Exception Handler'.
       2 CONVERTER-ERROR-7.
       3 PIC X(40) USAGE DISPLAY
           VALUE 'Language Environment Service Call Failed'.
       2 CONVERTER-ERROR-8.
       3 PIC X(35) USAGE DISPLAY
           VALUE 'Language Environment Message Number'.
       2 CONVERTER-ERROR-9.
       3 PIC X(31) USAGE DISPLAY
           VALUE 'XML Converter Is Terminating...'.
       1 X0000001C.
       2 PIC 9(4) COMP VALUE 26.
       2 PIC X(26) USAGE DISPLAY
           VALUE '<loadtxd_return_msg_field>'.
       1 X00000002.
       2 PIC 9(4) COMP VALUE 38.
       2 PIC X(38) USAGE DISPLAY
           VALUE '</cbl:LOADTXDPARMAREA></SOAP-ENV:Body>'.
       1 X0000001D.
       2 PIC 9(4) COMP VALUE 27.
       2 PIC X(27) USAGE DISPLAY
           VALUE '</loadtxd_return_msg_field>'.
       1 X00000007.
       2 PIC 9(4) COMP VALUE 20.
       2 PIC X(20) USAGE DISPLAY
           VALUE '<loadtxd_channel_id>'.
       1 X0000000A.
       2 PIC 9(4) COMP VALUE 22.
       2 PIC X(22) USAGE DISPLAY
           VALUE '<loadtxd_vers_resp_cd>'.
       1 X0000001F.
       2 PIC 9(4) COMP VALUE 25.
       2 PIC X(25) USAGE DISPLAY
           VALUE '<loadtxd_return_msg_text>'.
       1 X0000001A.
       2 PIC 9(4) COMP VALUE 25.
       2 PIC X(25) USAGE DISPLAY
           VALUE '</loadtxd_return_msg_num>'.
       1 X00000013.
       2 PIC 9(4) COMP VALUE 26.
       2 PIC X(26) USAGE DISPLAY
           VALUE '<loadtxd_return_msg_count>'.
       1 X00000001.
       2 PIC 9(4) COMP VALUE 98.
       2 PIC X(48) USAGE DISPLAY
           VALUE '<SOAP-ENV:Body><cbl:LOADTXDPARMAREA xmlns:cbl="h'.
       2 PIC X(48) USAGE DISPLAY
           VALUE 'ttp://www.WUT001LO.com/schemas/WUT001LOInterface'.
       2 PIC X(2) USAGE DISPLAY
           VALUE '">'.
       1 X00000014.
       2 PIC 9(4) COMP VALUE 27.
       2 PIC X(27) USAGE DISPLAY
           VALUE '</loadtxd_return_msg_count>'.
       1 X00000016.
       2 PIC 9(4) COMP VALUE 25.
       2 PIC X(25) USAGE DISPLAY
           VALUE '<loadtxd_return_msg_area>'.
       1 X0000000E.
       2 PIC 9(4) COMP VALUE 30.
       2 PIC X(30) USAGE DISPLAY
           VALUE '</loadtxd_return_status_parms>'.
       1 X00000008.
       2 PIC 9(4) COMP VALUE 21.
       2 PIC X(21) USAGE DISPLAY
           VALUE '</loadtxd_channel_id>'.
       1 X0000000B.
       2 PIC 9(4) COMP VALUE 23.
       2 PIC X(23) USAGE DISPLAY
           VALUE '</loadtxd_vers_resp_cd>'.
       1 X00000005.
       2 PIC 9(4) COMP VALUE 25.
       2 PIC X(25) USAGE DISPLAY
           VALUE '</loadtxd_channel_header>'.
       1 X00000010.
       2 PIC 9(4) COMP VALUE 28.
       2 PIC X(28) USAGE DISPLAY
           VALUE '<loadtxd_return_status_code>'.
       1 X00000011.
       2 PIC 9(4) COMP VALUE 29.
       2 PIC X(29) USAGE DISPLAY
           VALUE '</loadtxd_return_status_code>'.
       1 X00000020.
       2 PIC 9(4) COMP VALUE 26.
       2 PIC X(26) USAGE DISPLAY
           VALUE '</loadtxd_return_msg_text>'.
       1 X00000004.
       2 PIC 9(4) COMP VALUE 24.
       2 PIC X(24) USAGE DISPLAY
           VALUE '<loadtxd_channel_header>'.
       1 X00000019.
       2 PIC 9(4) COMP VALUE 24.
       2 PIC X(24) USAGE DISPLAY
           VALUE '<loadtxd_return_msg_num>'.
       1 X0000000D.
       2 PIC 9(4) COMP VALUE 29.
       2 PIC X(29) USAGE DISPLAY
           VALUE '<loadtxd_return_status_parms>'.
       1 X00000017.
       2 PIC 9(4) COMP VALUE 26.
       2 PIC X(26) USAGE DISPLAY
           VALUE '</loadtxd_return_msg_area>'.
       LOCAL-STORAGE SECTION.
       1 CEESRP-DATA.
       2 RECOVERY-POINT PIC S9(9) COMP.
       2 NUMVAL-ERROR PIC X.
       2 UNICODE-ERROR PIC X.
       2 OTHER-ERROR PIC X.
       2 SAVED-CONDITION PIC X(12).
       1 ROUTINE PROCEDURE-POINTER.
       1 TOKEN POINTER.
       1 FEEDBACK-CODE.
       2 CONDITION-TOKEN-VALUE.
       88 CEE000 VALUE X'0000000000000000'.
       88 CEE0E7 VALUE X'000101C749C3C5C5'.
       3 SEVERITY PIC S9(4) BINARY.
       3 MSG-NO PIC S9(4) BINARY.
       3 CASE-SEV-CTL PIC X.
       3 FACILITY PIC XXX.
       2 I-S-INFO PIC S9(9) BINARY.
       1 NEW-CONDITION.
       2 CONDITION-TOKEN-VALUE.
       88 CEE000 VALUE X'0000000000000000'.
       88 CEE0E7 VALUE X'000101C749C3C5C5'.
       3 SEVERITY PIC S9(4) BINARY.
       3 MSG-NO PIC S9(4) BINARY.
       3 CASE-SEV-CTL PIC X.
       3 FACILITY PIC XXX.
       2 I-S-INFO PIC S9(9) BINARY.
       1 VSTRING.
       2 VSTRING-LENGTH PIC S9(4) COMP.
       2 VSTRING-DATA PIC X(80).
       1 SEV PIC S9(4) COMP.
       1 MSGNO PIC S9(4) COMP.
       1 CASE PIC S9(4) COMP.
       1 SEV2 PIC S9(4) COMP.
       1 CNTRL PIC S9(4) COMP.
       1 FACID PIC X(3) DISPLAY.
       1 ISINFO PIC S9(9) COMP.
       1 QDATA PIC S9(9) COMP.
       1 INSERTNO PIC S9(9) COMP.
       1 EEC PIC 9(9) DISPLAY.
       1 CMP-TMPA PIC 9(9) COMP.
       1 CMP-TMPB PIC 9(9) COMP.
       1 ERROR-CODE PIC S9(9) COMP.
       1 MSG-VAR-PART-LEN PIC 9(9) COMP.
       1 MSGBLD-RETURN-CODE PIC S9(9) COMP.
       1 LAST-INSTRUCTION PIC 9(9) COMP.
       1 XML-RESPONSE.
       2 X00000003.
       5 X00000006 PIC X(8)
           VALUE SPACES.
       5 X00000009 PIC X(8)
           VALUE SPACES.
       2 X0000000C.
       5 X0000000F PIC X(1)
           VALUE SPACES.
       5 X00000012 PIC 9(1)
           VALUE ZEROS.
       5 X00000015.
       10 X00000018 PIC X(6)
           VALUE SPACES.
       10 X0000001B PIC X(30)
           VALUE SPACES.
       10 X0000001E PIC X(40)
           VALUE SPACES.
       1 INSTRUCTIONS.
       2 INSTRUCT OCCURS 42 TIMES
            INDEXED BY INSTRUCT-NDX.
       3 MBOPCODE PIC X VALUE X'FF'.
       3 MBDATPTR POINTER.
       3 MBDATLEN PIC 9(9) COMP.
       3 MBSTGPTR POINTER.
       3 MBETGPTR POINTER.
       LINKAGE SECTION.
       01 LOADTXD-PARM-AREA
           .
       02 LOADTXD-CHANNEL-HEADER
           .
       05 LOADTXD-CHANNEL-ID
           PICTURE X(8)
           USAGE DISPLAY
           .
       05 LOADTXD-VERS-RESP-CD
           PICTURE X(8)
           USAGE DISPLAY
           .
       88 LOADTXD-RESPONSE-SUCCESSFUL
           VALUE
           'WFUT000I'
           .
       88 LOADTXD-RESPONSE-ERROR
           VALUE
           'WFUT999E'
           .
       02 LOADTXD-INPUT-PARMS
           .
       05 LOADTXD-FUNCTION
           PICTURE X(8)
           USAGE DISPLAY
           .
       05 LOADTXD-USER-CD
           PICTURE X(8)
           USAGE DISPLAY
           .
       05 LOADTXD-CLAUSE-CD
           PICTURE X(8)
           USAGE DISPLAY
           .
       05 LOADTXD-PRINT-FLAG
           PICTURE X
           USAGE DISPLAY
           .
       05 LOADTXD-DOC-TYP-SEQ-NBR
           PICTURE +9(4)
           USAGE DISPLAY
           .
       05 LOADTXD-TEXT-ENTY-CD
           PICTURE X(15)
           USAGE DISPLAY
           .
       05 LOADTXD-CHNG-SEQ-NBR
           PICTURE X(3)
           USAGE DISPLAY
           .
       05 LOADTXD-ITEM-NBR
           PICTURE +9(4)
           USAGE DISPLAY
           .
       05 LOADTXD-CMNT-TEXT
           PICTURE X(9999)
           USAGE DISPLAY
           .
       02 LOADTXD-RETURN-STATUS-PARMS
           .
       05 LOADTXD-RETURN-STATUS-CODE
           PICTURE X
           USAGE DISPLAY
           .
       05 LOADTXD-RETURN-MSG-COUNT
           PICTURE 9
           USAGE DISPLAY
           .
       05 LOADTXD-RETURN-MSG-AREA
           .
       10 LOADTXD-RETURN-MSG-NUM
           PICTURE X(6)
           USAGE DISPLAY
           .
       10 LOADTXD-RETURN-MSG-FIELD
           PICTURE X(30)
           USAGE DISPLAY
           .
       10 LOADTXD-RETURN-MSG-TEXT
           PICTURE X(40)
           USAGE DISPLAY
           .
       1 OUTPUT-XML-LEN PIC 9(9) COMP.
       1 OUTPUT-XML PIC X(1203).
       1 OPTIONAL-FEEDBACK-CODE PIC X(12).
       1 CONVERTER-RETURN-CODE PIC S9(9) COMP.
       PROCEDURE DIVISION USING
           LOADTXD-PARM-AREA
           OUTPUT-XML-LEN
           OUTPUT-XML
           OPTIONAL-FEEDBACK-CODE
           RETURNING
           CONVERTER-RETURN-CODE.
      * -------------------------------------------------------------
      *              Please Do Not Modify This Program
      * -------------------------------------------------------------
       MAINLINE SECTION.
           MOVE 'N' TO NUMVAL-ERROR UNICODE-ERROR OTHER-ERROR
           PERFORM CHECK-PARAMETERS
           PERFORM REGISTER-EXCEPTION-HANDLER
           CALL 'CEE3SRP' USING RECOVERY-POINT FEEDBACK-CODE
           SERVICE LABEL
           IF UNICODE-ERROR = 'Y'
            MOVE 288 TO MSGNO
            PERFORM UNREGISTER-EXCEPTION-HANDLER
            PERFORM SIGNAL-CONDITION
            GOBACK
           END-IF
           IF OTHER-ERROR = 'Y'
            PERFORM UNREGISTER-EXCEPTION-HANDLER
            PERFORM SIGNAL-CONDITION
            GOBACK
           END-IF
           SET INSTRUCT-NDX TO 1
           MOVE X'A0' TO MBOPCODE(INSTRUCT-NDX)
           SET MBSTGPTR(INSTRUCT-NDX)
            TO ADDRESS OF X00000001
           SET INSTRUCT-NDX UP BY 1
           MOVE X'A0' TO MBOPCODE(INSTRUCT-NDX)
           SET MBSTGPTR(INSTRUCT-NDX)
            TO ADDRESS OF X00000004
           SET INSTRUCT-NDX UP BY 1
           MOVE X'B2' TO MBOPCODE(INSTRUCT-NDX)
           MOVE 8 TO MBDATLEN(INSTRUCT-NDX)
           SET MBDATPTR(INSTRUCT-NDX)
            TO ADDRESS OF X00000006
           SET MBSTGPTR(INSTRUCT-NDX)
            TO ADDRESS OF X00000007
           SET MBETGPTR(INSTRUCT-NDX)
            TO ADDRESS OF X00000008
           SET INSTRUCT-NDX UP BY 1
           MOVE LOADTXD-CHANNEL-ID
             OF LOADTXD-CHANNEL-HEADER
             OF LOADTXD-PARM-AREA
            TO X00000006
           MOVE X'B2' TO MBOPCODE(INSTRUCT-NDX)
           MOVE 8 TO MBDATLEN(INSTRUCT-NDX)
           SET MBDATPTR(INSTRUCT-NDX)
            TO ADDRESS OF X00000009
           SET MBSTGPTR(INSTRUCT-NDX)
            TO ADDRESS OF X0000000A
           SET MBETGPTR(INSTRUCT-NDX)
            TO ADDRESS OF X0000000B
           SET INSTRUCT-NDX UP BY 1
           MOVE LOADTXD-VERS-RESP-CD
             OF LOADTXD-CHANNEL-HEADER
             OF LOADTXD-PARM-AREA
            TO X00000009
           MOVE X'AE' TO MBOPCODE(INSTRUCT-NDX)
           SET MBETGPTR(INSTRUCT-NDX)
            TO ADDRESS OF X00000005
           SET INSTRUCT-NDX UP BY 1
           MOVE X'A0' TO MBOPCODE(INSTRUCT-NDX)
           SET MBSTGPTR(INSTRUCT-NDX)
            TO ADDRESS OF X0000000D
           SET INSTRUCT-NDX UP BY 1
           MOVE X'B2' TO MBOPCODE(INSTRUCT-NDX)
           MOVE 1 TO MBDATLEN(INSTRUCT-NDX)
           SET MBDATPTR(INSTRUCT-NDX)
            TO ADDRESS OF X0000000F
           SET MBSTGPTR(INSTRUCT-NDX)
            TO ADDRESS OF X00000010
           SET MBETGPTR(INSTRUCT-NDX)
            TO ADDRESS OF X00000011
           SET INSTRUCT-NDX UP BY 1
           MOVE LOADTXD-RETURN-STATUS-CODE
             OF LOADTXD-RETURN-STATUS-PARMS
             OF LOADTXD-PARM-AREA
            TO X0000000F
           MOVE X'B1' TO MBOPCODE(INSTRUCT-NDX)
           MOVE 1 TO MBDATLEN(INSTRUCT-NDX)
           SET MBDATPTR(INSTRUCT-NDX)
            TO ADDRESS OF X00000012
           SET MBSTGPTR(INSTRUCT-NDX)
            TO ADDRESS OF X00000013
           SET MBETGPTR(INSTRUCT-NDX)
            TO ADDRESS OF X00000014
           SET INSTRUCT-NDX UP BY 1
           IF LOADTXD-RETURN-MSG-COUNT
           OF LOADTXD-RETURN-STATUS-PARMS
           OF LOADTXD-PARM-AREA
            IS NOT NUMERIC
            MOVE ZEROS TO X00000012
           ELSE
            MOVE LOADTXD-RETURN-MSG-COUNT
              OF LOADTXD-RETURN-STATUS-PARMS
              OF LOADTXD-PARM-AREA
             TO X00000012
           END-IF
           MOVE X'A0' TO MBOPCODE(INSTRUCT-NDX)
           SET MBSTGPTR(INSTRUCT-NDX)
            TO ADDRESS OF X00000016
           SET INSTRUCT-NDX UP BY 1
           MOVE X'B2' TO MBOPCODE(INSTRUCT-NDX)
           MOVE 6 TO MBDATLEN(INSTRUCT-NDX)
           SET MBDATPTR(INSTRUCT-NDX)
            TO ADDRESS OF X00000018
           SET MBSTGPTR(INSTRUCT-NDX)
            TO ADDRESS OF X00000019
           SET MBETGPTR(INSTRUCT-NDX)
            TO ADDRESS OF X0000001A
           SET INSTRUCT-NDX UP BY 1
           MOVE LOADTXD-RETURN-MSG-NUM
             OF LOADTXD-RETURN-MSG-AREA
             OF LOADTXD-RETURN-STATUS-PARMS
             OF LOADTXD-PARM-AREA
            TO X00000018
           MOVE X'B2' TO MBOPCODE(INSTRUCT-NDX)
           MOVE 30 TO MBDATLEN(INSTRUCT-NDX)
           SET MBDATPTR(INSTRUCT-NDX)
            TO ADDRESS OF X0000001B
           SET MBSTGPTR(INSTRUCT-NDX)
            TO ADDRESS OF X0000001C
           SET MBETGPTR(INSTRUCT-NDX)
            TO ADDRESS OF X0000001D
           SET INSTRUCT-NDX UP BY 1
           MOVE LOADTXD-RETURN-MSG-FIELD
             OF LOADTXD-RETURN-MSG-AREA
             OF LOADTXD-RETURN-STATUS-PARMS
             OF LOADTXD-PARM-AREA
            TO X0000001B
           MOVE X'B2' TO MBOPCODE(INSTRUCT-NDX)
           MOVE 40 TO MBDATLEN(INSTRUCT-NDX)
           SET MBDATPTR(INSTRUCT-NDX)
            TO ADDRESS OF X0000001E
           SET MBSTGPTR(INSTRUCT-NDX)
            TO ADDRESS OF X0000001F
           SET MBETGPTR(INSTRUCT-NDX)
            TO ADDRESS OF X00000020
           SET INSTRUCT-NDX UP BY 1
           MOVE LOADTXD-RETURN-MSG-TEXT
             OF LOADTXD-RETURN-MSG-AREA
             OF LOADTXD-RETURN-STATUS-PARMS
             OF LOADTXD-PARM-AREA
            TO X0000001E
           MOVE X'AE' TO MBOPCODE(INSTRUCT-NDX)
           SET MBETGPTR(INSTRUCT-NDX)
            TO ADDRESS OF X00000017
           SET INSTRUCT-NDX UP BY 1
           MOVE X'AE' TO MBOPCODE(INSTRUCT-NDX)
           SET MBETGPTR(INSTRUCT-NDX)
            TO ADDRESS OF X0000000E
           SET INSTRUCT-NDX UP BY 1
           MOVE X'AE' TO MBOPCODE(INSTRUCT-NDX)
           SET MBETGPTR(INSTRUCT-NDX)
            TO ADDRESS OF X00000002
           SET INSTRUCT-NDX UP BY 1
           CALL 'WUT001LC' USING
            INSTRUCTIONS OUTPUT-XML-LEN
            OUTPUT-XML LAST-INSTRUCTION
            RETURNING
             MSGBLD-RETURN-CODE
           IF MSGBLD-RETURN-CODE NOT EQUAL ZERO
            MOVE MSGBLD-RETURN-CODE
             TO MSGNO CONVERTER-RETURN-CODE
            PERFORM UNREGISTER-EXCEPTION-HANDLER
            PERFORM SIGNAL-CONDITION
            GOBACK
           ELSE
            MOVE ZERO TO CONVERTER-RETURN-CODE
           END-IF
           PERFORM UNREGISTER-EXCEPTION-HANDLER
           GOBACK
           .
       CHECK-PARAMETERS.
           IF ADDRESS OF LOADTXD-PARM-AREA EQUAL NULL AND
              ADDRESS OF OUTPUT-XML-LEN NOT EQUAL NULL
            CALL 'WUT001LL' USING OUTPUT-XML-LEN
            GOBACK
           ELSE
            IF ADDRESS OF OUTPUT-XML EQUAL NULL AND
               ADDRESS OF OUTPUT-XML-LEN NOT EQUAL NULL
             CALL 'WUT001LK' USING OUTPUT-XML-LEN
             GOBACK
           END-IF
           IF ADDRESS OF LOADTXD-PARM-AREA EQUAL NULL OR
              ADDRESS OF OUTPUT-XML-LEN EQUAL NULL OR
              ADDRESS OF OUTPUT-XML EQUAL NULL
            MOVE 294 TO MSGNO
            PERFORM SIGNAL-CONDITION
            GOBACK
           END-IF
           .
       SIGNAL-CONDITION.
           IF OTHER-ERROR = 'N'
            MOVE 3 TO SEV SEV2
            MOVE 1 TO CASE CNTRL
            MOVE 0 TO ISINFO
            MOVE 0 TO INSERTNO
            MOVE 'IGZ' TO FACID
            CALL 'CEENCOD' USING
             SEV MSGNO CASE SEV2
             CNTRL FACID ISINFO
             NEW-CONDITION FEEDBACK-CODE
            PERFORM CHECK-LE-SERVICE-FC
            MOVE 8 TO VSTRING-LENGTH
            MOVE 'WUT001LO'
             TO VSTRING-DATA (1:8)
            PERFORM INSERT-VSTRING
            MOVE MSGNO TO ERROR-CODE
            EVALUATE MSGNO
             WHEN 287
              MOVE 1203 TO EEC
              PERFORM INSERT-NUMBER
             WHEN 288
              MOVE 37 TO EEC
              PERFORM INSERT-NUMBER
              MOVE 37 TO EEC
              PERFORM INSERT-NUMBER
            END-EVALUATE
           ELSE
            MOVE SAVED-CONDITION TO NEW-CONDITION
            MOVE MSG-NO OF NEW-CONDITION TO ERROR-CODE
           END-IF
           MOVE 0 TO QDATA
           IF ADDRESS OF OPTIONAL-FEEDBACK-CODE = NULL
            CALL 'CEESGL' USING
             NEW-CONDITION QDATA OMITTED
           ELSE
            MOVE NEW-CONDITION TO OPTIONAL-FEEDBACK-CODE
           END-IF
           IF MSGNO NOT EQUAL 294
            MOVE ERROR-CODE TO CONVERTER-RETURN-CODE
           END-IF
           .
       INSERT-NUMBER.
           MOVE ZERO TO CMP-TMPA
           INSPECT EEC
            TALLYING CMP-TMPA FOR LEADING ZEROS
           COMPUTE CMP-TMPB = 9 - CMP-TMPA
           MOVE CMP-TMPB TO VSTRING-LENGTH
           MOVE EEC (CMP-TMPA + 1:CMP-TMPB)
            TO VSTRING-DATA
           PERFORM INSERT-VSTRING
           .
       INSERT-VSTRING.
           ADD 1 TO INSERTNO
           CALL 'CEECMI' USING
            NEW-CONDITION INSERTNO
            VSTRING FEEDBACK-CODE
           PERFORM CHECK-LE-SERVICE-FC
           .
       CHECK-LE-SERVICE-FC.
           IF NOT CEE000 OF FEEDBACK-CODE
            DISPLAY CONVERTER-ERROR-7
            DISPLAY CONVERTER-ERROR-8 ' '
             FACILITY OF FEEDBACK-CODE
             MSG-NO OF FEEDBACK-CODE
            DISPLAY CONVERTER-ERROR-9
            STOP RUN
           END-IF
           .
       REGISTER-EXCEPTION-HANDLER.
           SET ROUTINE
            TO ENTRY 'WUT001LE'
           SET TOKEN TO ADDRESS OF CEESRP-DATA
           CALL 'CEEHDLR' USING
            ROUTINE TOKEN FEEDBACK-CODE
           IF NOT CEE000 OF FEEDBACK-CODE
            DISPLAY CONVERTER-ERROR-3
            STOP RUN
           END-IF
           .
       UNREGISTER-EXCEPTION-HANDLER.
           CALL 'CEEHDLU' USING
            ROUTINE FEEDBACK-CODE
           IF NOT CEE000 OF FEEDBACK-CODE
            DISPLAY CONVERTER-ERROR-4
            STOP RUN
           END-IF
           .
       END PROGRAM 'WUT001LO'.
      *          *********************************************
      *    *********************************************************
      *  *************************************************************
      *                Outbound XML 1.0 Message Builder
      *  *************************************************************
      *    *********************************************************
      *          *********************************************
       IDENTIFICATION DIVISION.
        PROGRAM-ID. 'WUT001LC'.
        AUTHOR. DEVHV.
        INSTALLATION. 7.17.600.V200712031646.
        DATE-WRITTEN. 4/8/08 2:08 PM.
       DATA DIVISION.
       LOCAL-STORAGE SECTION.
       1 CMP-TMPA PIC 9(9) COMP.
       1 CMP-TMPB PIC 9(9) COMP.
       1 TRIM-LEFT PIC 9(9) COMP.
       1 TRIM-RIGHT PIC 9(9) COMP.
       1 VALID-TEXT-FLAG PIC X VALUE 'Y'.
       1 NEXT-CHAR PIC X.
       LINKAGE SECTION.
       1 INSTRUCTIONS.
       2 INSTRUCT OCCURS 42 TIMES
            INDEXED BY INSTRUCT-NDX.
       3 MBOPCODE PIC X.
       3 MBDATPTR POINTER.
       3 MBDATLEN PIC 9(9) COMP.
       3 MBSTGPTR POINTER.
       3 MBETGPTR POINTER.
       1 OUTPUT-XML-LEN PIC 9(9) COMP.
       1 OUTPUT-XML PIC X(1203).
       1 MSGBLD-RETURN-CODE PIC S9(9) COMP.
       1 XML-TAG-DESCRIPTOR.
       2 XML-TAG-LEN PIC 9(4) COMP.
       2 XML-TAG PIC X(98).
       1 CONTENT-TXT PIC X(128).
       1 LAST-INSTRUCTION PIC 9(9) COMP.
       PROCEDURE DIVISION USING
            INSTRUCTIONS OUTPUT-XML-LEN
            OUTPUT-XML LAST-INSTRUCTION
           RETURNING
            MSGBLD-RETURN-CODE.
       MAINLINE SECTION.
      * -------------------------------------------------------------
      *              Please Do Not Modify This Program
      * -------------------------------------------------------------
           MOVE ZERO TO OUTPUT-XML-LEN
           SET INSTRUCT-NDX TO 1
           PERFORM UNTIL MBOPCODE(INSTRUCT-NDX) = X'FF'
            EVALUATE MBOPCODE(INSTRUCT-NDX)
            WHEN X'A0'
             PERFORM START-TAG
            WHEN X'AE'
             PERFORM END-TAG
            WHEN X'B1'
             PERFORM START-TAG
             PERFORM CONVERT-NUMERIC
             PERFORM END-TAG
            WHEN X'B2'
             PERFORM START-TAG
             PERFORM CONVERT-ALPHANUMERIC
             PERFORM END-TAG
            WHEN X'B3'
             PERFORM START-TAG
             PERFORM CONVERT-FLOAT
             PERFORM END-TAG
            END-EVALUATE
            SET INSTRUCT-NDX UP BY 1
           END-PERFORM
           GOBACK
           .
       START-TAG.
           SET ADDRESS OF XML-TAG-DESCRIPTOR
            TO MBSTGPTR(INSTRUCT-NDX)
           MOVE XML-TAG(1:XML-TAG-LEN)
            TO OUTPUT-XML(OUTPUT-XML-LEN + 1:XML-TAG-LEN)
           ADD XML-TAG-LEN TO OUTPUT-XML-LEN
           .
       END-TAG.
           SET ADDRESS OF XML-TAG-DESCRIPTOR
            TO MBETGPTR(INSTRUCT-NDX)
           MOVE XML-TAG(1:XML-TAG-LEN)
            TO OUTPUT-XML(OUTPUT-XML-LEN + 1:XML-TAG-LEN)
           ADD XML-TAG-LEN TO OUTPUT-XML-LEN
           .
       CONVERT-ALPHANUMERIC.
           CALL 'XCHRFLTR' USING
            BY VALUE MBDATLEN(INSTRUCT-NDX)
            BY VALUE MBDATPTR(INSTRUCT-NDX)
            BY REFERENCE VALID-TEXT-FLAG
           IF VALID-TEXT-FLAG EQUAL 'Y'
            SET ADDRESS OF CONTENT-TXT
             TO MBDATPTR(INSTRUCT-NDX)
            PERFORM TRIM-SPACES-RIGHT
            PERFORM VARYING CMP-TMPA FROM 1 BY 1
             UNTIL CMP-TMPA > TRIM-RIGHT
             MOVE CONTENT-TXT(CMP-TMPA:1) TO NEXT-CHAR
             EVALUATE NEXT-CHAR
              WHEN '&'
               MOVE '&amp;'
                TO OUTPUT-XML(OUTPUT-XML-LEN + 1:5)
               ADD 5 TO OUTPUT-XML-LEN
              WHEN '<'
               MOVE '&lt;'
                TO OUTPUT-XML(OUTPUT-XML-LEN + 1:4)
               ADD 4 TO OUTPUT-XML-LEN
              WHEN '>'
               MOVE '&gt;'
                TO OUTPUT-XML(OUTPUT-XML-LEN + 1:4)
               ADD 4 TO OUTPUT-XML-LEN
              WHEN ''''
               MOVE '&apos;'
                TO OUTPUT-XML(OUTPUT-XML-LEN + 1:6)
               ADD 6 TO OUTPUT-XML-LEN
              WHEN '"'
               MOVE '&quot;'
                TO OUTPUT-XML(OUTPUT-XML-LEN + 1:6)
               ADD 6 TO OUTPUT-XML-LEN
             WHEN OTHER
               MOVE NEXT-CHAR
                TO OUTPUT-XML(OUTPUT-XML-LEN + 1:1)
               ADD 1 TO OUTPUT-XML-LEN
             END-EVALUATE
            END-PERFORM
           END-IF
           .
       CONVERT-NUMERIC.
           SET ADDRESS OF CONTENT-TXT
            TO MBDATPTR(INSTRUCT-NDX)
           PERFORM TRIM-SPACES-LEFT
           PERFORM TRIM-SPACES-RIGHT
           PERFORM TRIM-ZEROS-LEFT
           COMPUTE CMP-TMPA = (TRIM-RIGHT - TRIM-LEFT) + 1
           IF CMP-TMPA > 0
            MOVE CONTENT-TXT(TRIM-LEFT:CMP-TMPA)
             TO OUTPUT-XML(OUTPUT-XML-LEN + 1:CMP-TMPA)
            ADD CMP-TMPA TO OUTPUT-XML-LEN
           ELSE
            MOVE '0'
             TO OUTPUT-XML(OUTPUT-XML-LEN + 1:1)
            ADD 1 TO OUTPUT-XML-LEN
           END-IF
           .
       CONVERT-FLOAT.
           SET ADDRESS OF CONTENT-TXT
            TO MBDATPTR(INSTRUCT-NDX)
           PERFORM TRIM-SPACES-LEFT
           PERFORM TRIM-SPACES-RIGHT
           COMPUTE CMP-TMPA = (TRIM-RIGHT - TRIM-LEFT) + 1
           MOVE CONTENT-TXT(TRIM-LEFT:CMP-TMPA)
            TO OUTPUT-XML(OUTPUT-XML-LEN + 1:CMP-TMPA)
           ADD CMP-TMPA TO OUTPUT-XML-LEN
           .
       TRIM-SPACES-RIGHT.
           MOVE MBDATLEN(INSTRUCT-NDX) TO CMP-TMPA
           PERFORM TEST BEFORE
            VARYING TRIM-RIGHT FROM CMP-TMPA BY -1
            UNTIL TRIM-RIGHT = 1
            OR CONTENT-TXT(TRIM-RIGHT:1) NOT = SPACE
           END-PERFORM
           .
       TRIM-SPACES-LEFT.
           COMPUTE CMP-TMPA = MBDATLEN(INSTRUCT-NDX)
           PERFORM TEST BEFORE
            VARYING TRIM-LEFT FROM 1 BY 1
            UNTIL TRIM-LEFT >= CMP-TMPA
            OR CONTENT-TXT(TRIM-LEFT:1) NOT = SPACE
           END-PERFORM
           .
       TRIM-ZEROS-LEFT.
           IF CONTENT-TXT(TRIM-LEFT:1) = '-'
            MOVE '-'
             TO OUTPUT-XML(OUTPUT-XML-LEN + 1:1)
            ADD 1 TO OUTPUT-XML-LEN
            ADD 1 TO TRIM-LEFT
           END-IF
           COMPUTE CMP-TMPB = (TRIM-RIGHT - TRIM-LEFT) + 1
           IF CMP-TMPB > 1
            MOVE 0 TO CMP-TMPA
            INSPECT CONTENT-TXT(TRIM-LEFT:CMP-TMPB)
             TALLYING CMP-TMPA FOR LEADING '0'
            ADD CMP-TMPA TO TRIM-LEFT
            IF CONTENT-TXT(TRIM-LEFT:1) = '.'
             MOVE '0'
              TO OUTPUT-XML(OUTPUT-XML-LEN + 1:1)
             ADD 1 TO OUTPUT-XML-LEN
            END-IF
           END-IF
           .
      * -------------------------------------------------------------
      *          Outbound Illegal XML 1.0 Character Filter
      * -------------------------------------------------------------
       IDENTIFICATION DIVISION.
        PROGRAM-ID. 'XCHRFLTR'.
        AUTHOR. DEVHV.
        INSTALLATION. 7.17.600.V200712031646.
        DATE-WRITTEN. 4/8/08 2:08 PM.
       DATA DIVISION.
       WORKING-STORAGE SECTION.
       1 X00000023.
       2 PIC X(24) USAGE DISPLAY
           VALUE X'0001020304060708090A0B0C0E0F1011121314161718191A'.
       2 PIC X(24) USAGE DISPLAY
           VALUE X'1B1C1D1E1F2021222324262728292A2B2C2D2E2F30313233'.
       2 PIC X(13) USAGE DISPLAY
           VALUE X'3435363738393A3B3C3D3E3FFF'.
       1 ILLEGAL-XML-CHARS REDEFINES X00000023
           PIC X(61).
       LOCAL-STORAGE SECTION.
       LINKAGE SECTION.
       1 CONTENT-LEN PIC 9(9) COMP.
       1 CONTENT-PTR POINTER.
       1 CONTENT-TXT PIC X(128).
       1 VALID-TEXT-FLAG PIC X.
       PROCEDURE DIVISION USING BY VALUE CONTENT-LEN CONTENT-PTR
           BY REFERENCE VALID-TEXT-FLAG.
       MAINLINE SECTION.
      * -------------------------------------------------------------
      *              Please Do Not Modify This Program
      * -------------------------------------------------------------
           SET ADDRESS OF CONTENT-TXT TO CONTENT-PTR
           INSPECT CONTENT-TXT(1:CONTENT-LEN) CONVERTING
            ILLEGAL-XML-CHARS TO SPACES
           MOVE 'Y' TO VALID-TEXT-FLAG
           GOBACK
           .
       END PROGRAM 'XCHRFLTR'.
       END PROGRAM 'WUT001LC'.
      *          *********************************************
      *    *********************************************************
      *  *************************************************************
      *           Maximum Outbound XML Message Size In Bytes
      *  *************************************************************
      *    *********************************************************
      *          *********************************************
       IDENTIFICATION DIVISION.
        PROGRAM-ID. 'WUT001LK'.
        AUTHOR. DEVHV.
        INSTALLATION. 7.17.600.V200712031646.
        DATE-WRITTEN. 4/8/08 2:08 PM.
       DATA DIVISION.
       WORKING-STORAGE SECTION.
       LINKAGE SECTION.
       1 OUTXML-MAX-SIZE PIC 9(9) COMP.
       PROCEDURE DIVISION USING OUTXML-MAX-SIZE.
       MAINLINE SECTION.
           MOVE 1203 TO OUTXML-MAX-SIZE
           GOBACK
           .
       END PROGRAM 'WUT001LK'.
      *          *********************************************
      *    *********************************************************
      *  *************************************************************
      *       Maximum Outbound Language Structure Size In Bytes
      *  *************************************************************
      *    *********************************************************
      *          *********************************************
       IDENTIFICATION DIVISION.
        PROGRAM-ID. 'WUT001LL'.
        AUTHOR. DEVHV.
        INSTALLATION. 7.17.600.V200712031646.
        DATE-WRITTEN. 4/8/08 2:08 PM.
       DATA DIVISION.
       WORKING-STORAGE SECTION.
       LINKAGE SECTION.
       1 OUTSTRUCT-MAX-SIZE PIC 9(9) COMP.
       PROCEDURE DIVISION USING OUTSTRUCT-MAX-SIZE.
       MAINLINE SECTION.
           MOVE 10146 TO OUTSTRUCT-MAX-SIZE
           GOBACK
           .
       END PROGRAM 'WUT001LL'.
      *          *********************************************
      *    *********************************************************
      *  *************************************************************
      *            Outbound XML Converter Exception Handler
      *  *************************************************************
      *    *********************************************************
      *          *********************************************
       IDENTIFICATION DIVISION.
        PROGRAM-ID. 'WUT001LE'.
        AUTHOR. DEVHV.
        INSTALLATION. 7.17.600.V200712031646.
        DATE-WRITTEN. 4/8/08 2:08 PM.
       DATA DIVISION.
       WORKING-STORAGE SECTION.
       1 CONVERTER-ERROR-6.
       2 PIC X(39) USAGE DISPLAY
           VALUE 'Failed To Resume Execution Of Converter'.
       LOCAL-STORAGE SECTION.
       1 FEEDBACK-CODE.
       2 CONDITION-TOKEN-VALUE.
       88 CEE000 VALUE X'0000000000000000'.
       88 CEE0E7 VALUE X'000101C749C3C5C5'.
       3 SEVERITY PIC S9(4) BINARY.
       3 MSG-NO PIC S9(4) BINARY.
       3 CASE-SEV-CTL PIC X.
       3 FACILITY PIC XXX.
       2 I-S-INFO PIC S9(9) BINARY.
       LINKAGE SECTION.
       1 CEESRP-DATA.
       2 RECOVERY-POINT PIC S9(9) COMP.
       2 NUMVAL-ERROR PIC X.
       2 UNICODE-ERROR PIC X.
       2 OTHER-ERROR PIC X.
       2 SAVED-CONDITION PIC X(12).
       1 TOKEN  POINTER.
       1 RESULT PIC S9(9) COMP.
       88 RESUME VALUE 10.
       1 CURRENT-CONDITION.
       2 CONDITION-TOKEN-VALUE.
       88 CEE000 VALUE X'0000000000000000'.
       88 CEE0E7 VALUE X'000101C749C3C5C5'.
       3 SEVERITY PIC S9(4) BINARY.
       3 MSG-NO PIC S9(4) BINARY.
       3 CASE-SEV-CTL PIC X.
       3 FACILITY PIC XXX.
       2 I-S-INFO PIC S9(9) BINARY.
       1 NEW-CONDITION PIC X(12).
       PROCEDURE DIVISION USING CURRENT-CONDITION TOKEN
           RESULT NEW-CONDITION.
       MAINLINE SECTION.
      * -------------------------------------------------------------
      *              Please Do Not Modify This Program
      * -------------------------------------------------------------
           SET ADDRESS OF CEESRP-DATA TO TOKEN
           SET RESUME TO TRUE
           CALL 'CEEMRCE' USING RECOVERY-POINT FEEDBACK-CODE
           IF NOT CEE000 OF FEEDBACK-CODE
            DISPLAY CONVERTER-ERROR-6
           END-IF
           IF FACILITY OF CURRENT-CONDITION = 'IGZ'
            EVALUATE MSG-NO OF CURRENT-CONDITION
             WHEN 272
              MOVE 'Y' TO UNICODE-ERROR
             WHEN OTHER
              MOVE 'Y' TO OTHER-ERROR
            END-EVALUATE
           ELSE
            MOVE 'Y' TO OTHER-ERROR
           END-IF
           MOVE CURRENT-CONDITION TO SAVED-CONDITION
           GOBACK
           .
       END PROGRAM 'WUT001LE'.

